datosdia2/SDS00001.CSV

Record Length,20480,,Source,CH1,CH2
Sample Interval,CH1:0.0000004000000 CH2:0.0000004000000,,Second,Volt,Volt
Vertical Units,CH1:V CH2:V,,-0.00409599999,-1.20000,-32.80000
Vertical Scale,CH1:1.00 CH2:10.00,,-0.00409559999,-1.08000,-31.60000
Vertical Offset,CH1:0.00 CH2:0.00,,-0.00409519998,-1.00000,-30.00000
Horizontal Units,s,,-0.00409479998,-0.92000,-28.40000
Horizontal Scale,0.0002500000,,-0.00409439998,-0.80000,-26.80000
Model Number,SDS1102CML+,,-0.00409399997,-0.72000,-25.20000
Serial Number,SDS1MHEX5R4100,,-0.00409359997,-0.60000,-23.20000
Software Version,6.01.01.21R2,,-0.00409319997,-0.52000,-21.60000
,,,-0.00409279997,-0.40000,-20.00000
,,,-0.00409239996,-0.28000,-18.00000
,,,-0.00409199996,-0.20000,-16.00000
,,,-0.00409159996,-0.08000,-14.40000
,,,-0.00409119995,0.00,-12.40000
,,,-0.00409079995,0.12000,-10.40000
,,,-0.00409039995,0.24000,-8.40000
,,,-0.00408999994,0.32000,-6.80000
,,,-0.00408959994,0.44000,-4.80000
,,,-0.00408919994,0.52000,-2.80000
,,,-0.00408879993,0.64000,-0.80000
,,,-0.00408839993,0.72000,1.20000
,,,-0.00408799993,0.80000,3.20000
,,,-0.00408759993,0.92000,5.20000
,,,-0.00408719992,1.00000,7.20000
,,,-0.00408679992,1.08000,9.20000
,,,-0.00408639992,1.20000,11.20000
,,,-0.00408599991,1.28000,12.80000
,,,-0.00408559991,1.36000,14.80000
,,,-0.00408519991,1.44000,16.80000
,,,-0.00408479990,1.52000,18.80000
,,,-0.00408439990,1.60000,20.40000
,,,-0.00408399990,1.68000,22.00000
,,,-0.00408359990,1.76000,24.00000
,,,-0.00408319989,1.80000,25.60000
,,,-0.00408279989,1.88000,27.20000
,,,-0.00408239989,1.92000,28.80000
,,,-0.00408199988,2.00000,30.00000
,,,-0.00408159988,2.04000,31.60000
,,,-0.00408119988,2.12000,33.20000
,,,-0.00408079987,2.16000,34.40000
,,,-0.00408039987,2.20000,35.60000
,,,-0.00407999987,2.24000,36.80000
,,,-0.00407959986,2.28000,38.00000
,,,-0.00407919986,2.32000,39.20000
,,,-0.00407879986,2.36000,40.40000
,,,-0.00407839986,2.36000,41.20000
,,,-0.00407799985,2.40000,42.00000
,,,-0.00407759985,2.44000,42.80000
,,,-0.00407719985,2.44000,43.60001
,,,-0.00407679984,2.44000,44.40000
,,,-0.00407639984,2.48000,44.80000
,,,-0.00407599984,2.48000,45.60001
,,,-0.00407559983,2.48000,46.00000
,,,-0.00407519983,2.48000,46.40000
,,,-0.00407479983,2.48000,46.80000
,,,-0.00407439983,2.48000,46.80000
,,,-0.00407399982,2.48000,47.20000
,,,-0.00407359982,2.44000,47.20000
,,,-0.00407319982,2.40000,47.20000
,,,-0.00407280028,2.40000,47.20000
,,,-0.00407240028,2.36000,47.20000
,,,-0.00407200027,2.32000,46.80000
,,,-0.00407160027,2.28000,46.80000
,,,-0.00407120027,2.28000,46.40000
,,,-0.00407080026,2.24000,46.00000
,,,-0.00407040026,2.20000,45.60001
,,,-0.00407000026,2.12000,44.80000
,,,-0.00406960025,2.08000,44.40000
,,,-0.00406920025,2.04000,43.60001
,,,-0.00406880025,1.96000,42.80000
,,,-0.00406840025,1.92000,42.00000
,,,-0.00406800024,1.84000,41.20000
,,,-0.00406760024,1.76000,40.00000
,,,-0.00406720024,1.72000,39.20000
,,,-0.00406680023,1.64000,38.00000
,,,-0.00406640023,1.56000,36.80000
,,,-0.00406600023,1.48000,35.60000
,,,-0.00406560022,1.40000,34.40000
,,,-0.00406520022,1.32000,32.80000
,,,-0.00406480022,1.24000,31.60000
,,,-0.00406440021,1.16000,30.00000
,,,-0.00406400021,1.04000,28.40000
,,,-0.00406360021,0.96000,26.80000
,,,-0.00406320021,0.88000,25.20000
,,,-0.00406280020,0.76000,23.60000
,,,-0.00406240020,0.68000,22.00000
,,,-0.00406200020,0.56000,20.00000
,,,-0.00406160019,0.48000,18.40000
,,,-0.00406120019,0.36000,16.40000
,,,-0.00406080019,0.28000,14.40000
,,,-0.00406040018,0.16000,12.80000
,,,-0.00406000018,0.04000,10.80000
,,,-0.00405960018,-0.04000,8.80000
,,,-0.00405920018,-0.16000,6.80000
,,,-0.00405880017,-0.28000,4.80000
,,,-0.00405840017,-0.36000,2.80000
,,,-0.00405800017,-0.48000,0.80000
,,,-0.00405760016,-0.60000,-0.80000
,,,-0.00405720016,-0.68000,-3.20000
,,,-0.00405680016,-0.80000,-4.80000
,,,-0.00405640015,-0.92000,-6.80000
,,,-0.00405600015,-1.00000,-8.80000
,,,-0.00405560015,-1.12000,-10.80000
,,,-0.00405520014,-1.24000,-12.80000
,,,-0.00405480014,-1.32000,-14.80000
,,,-0.00405440014,-1.40000,-16.40000
,,,-0.00405400014,-1.52000,-18.40000
,,,-0.00405360013,-1.60000,-20.00000
,,,-0.00405320013,-1.72000,-22.00000
,,,-0.00405280013,-1.80000,-23.60000
,,,-0.00405240012,-1.88000,-25.60000
,,,-0.00405200012,-1.96000,-27.20000
,,,-0.00405160012,-2.04000,-28.80000
,,,-0.00405120011,-2.12000,-30.00000
,,,-0.00405080011,-2.20000,-31.60000
,,,-0.00405040011,-2.24000,-33.20000
,,,-0.00405000011,-2.32000,-34.40000
,,,-0.00404960010,-2.36000,-36.00000
,,,-0.00404920010,-2.44000,-37.20000
,,,-0.00404880010,-2.48000,-38.40000
,,,-0.00404840009,-2.52000,-39.20000
,,,-0.00404800009,-2.56000,-40.40000
,,,-0.00404760009,-2.60000,-41.60000
,,,-0.00404720008,-2.60000,-42.40000
,,,-0.00404680008,-2.64000,-43.20000
,,,-0.00404640008,-2.64000,-44.00000
,,,-0.00404600007,-2.64000,-44.80000
,,,-0.00404560007,-2.68000,-45.20000
,,,-0.00404520007,-2.68000,-46.00000
,,,-0.00404480007,-2.68000,-46.40000
,,,-0.00404440006,-2.64000,-46.80000
,,,-0.00404400006,-2.64000,-47.20000
,,,-0.00404360006,-2.60000,-47.20000
,,,-0.00404320005,-2.60000,-47.60001
,,,-0.00404280005,-2.56000,-47.60001
,,,-0.00404240005,-2.52000,-47.60001
,,,-0.00404200004,-2.48000,-47.20000
,,,-0.00404160004,-2.44000,-47.20000
,,,-0.00404120004,-2.40000,-46.80000
,,,-0.00404080003,-2.36000,-46.40000
,,,-0.00404040003,-2.28000,-46.00000
,,,-0.00404000003,-2.24000,-45.60001
,,,-0.00403960003,-2.16000,-45.20000
,,,-0.00403920002,-2.12000,-44.40000
,,,-0.00403880002,-2.04000,-43.60001
,,,-0.00403840002,-1.96000,-42.80000
,,,-0.00403800001,-1.88000,-42.00000
,,,-0.00403760001,-1.80000,-41.20000
,,,-0.00403720001,-1.72000,-40.00000
,,,-0.00403680000,-1.64000,-39.20000
,,,-0.00403640000,-1.56000,-38.00000
,,,-0.00403600000,-1.48000,-36.40000
,,,-0.00403560000,-1.36000,-35.20000
,,,-0.00403519999,-1.28000,-34.00000
,,,-0.00403479999,-1.20000,-32.40000
,,,-0.00403439999,-1.08000,-31.20000
,,,-0.00403399998,-1.00000,-29.60000
,,,-0.00403359998,-0.88000,-28.00000
,,,-0.00403319998,-0.80000,-26.40000
,,,-0.00403279997,-0.68000,-24.80000
,,,-0.00403239997,-0.56000,-22.80000
,,,-0.00403199997,-0.48000,-21.20000
,,,-0.00403159996,-0.36000,-19.60000
,,,-0.00403119996,-0.28000,-17.60000
,,,-0.00403079996,-0.16000,-16.00000
,,,-0.00403039996,-0.08000,-14.00000
,,,-0.00402999995,0.04000,-12.00000
,,,-0.00402959995,0.16000,-10.00000
,,,-0.00402919995,0.24000,-8.00000
,,,-0.00402879994,0.36000,-6.40000
,,,-0.00402839994,0.44000,-4.40000
,,,-0.00402799994,0.52000,-2.40000
,,,-0.00402759993,0.64000,-0.40000
,,,-0.00402719993,0.72000,1.60000
,,,-0.00402679993,0.84000,3.60000
,,,-0.00402639993,0.96000,5.60000
,,,-0.00402599992,1.04000,7.60000
,,,-0.00402559992,1.12000,9.60000
,,,-0.00402519992,1.20000,11.60000
,,,-0.00402479991,1.28000,13.20000
,,,-0.00402439991,1.40000,15.20000
,,,-0.00402399991,1.44000,17.20000
,,,-0.00402359990,1.52000,18.80000
,,,-0.00402319990,1.64000,20.80000
,,,-0.00402279990,1.68000,22.40000
,,,-0.00402239989,1.76000,24.00000
,,,-0.00402199989,1.84000,25.60000
,,,-0.00402159989,1.88000,27.60000
,,,-0.00402119989,1.96000,28.80000
,,,-0.00402079988,2.00000,30.40000
,,,-0.00402039988,2.08000,32.00000
,,,-0.00401999988,2.12000,33.20000
,,,-0.00401959987,2.16000,34.80000
,,,-0.00401919987,2.20000,36.00000
,,,-0.00401879987,2.24000,37.20000
,,,-0.00401839986,2.28000,38.40000
,,,-0.00401799986,2.32000,39.60000
,,,-0.00401759986,2.36000,40.40000
,,,-0.00401719986,2.40000,41.20000
,,,-0.00401679985,2.40000,42.40000
,,,-0.00401639985,2.44000,43.20000
,,,-0.00401599985,2.44000,44.00000
,,,-0.00401559984,2.44000,44.40000
,,,-0.00401519984,2.48000,45.20000
,,,-0.00401479984,2.48000,45.60001
,,,-0.00401439983,2.48000,46.00000
,,,-0.00401399983,2.48000,46.40000
,,,-0.00401359983,2.48000,46.80000
,,,-0.00401319982,2.48000,47.20000
,,,-0.00401279982,2.44000,47.20000
,,,-0.00401239982,2.44000,47.20000
,,,-0.00401199982,2.40000,47.60001
,,,-0.00401160028,2.40000,47.20000
,,,-0.00401120028,2.36000,47.20000
,,,-0.00401080027,2.32000,46.80000
,,,-0.00401040027,2.28000,46.80000
,,,-0.00401000027,2.24000,46.40000
,,,-0.00400960026,2.20000,46.00000
,,,-0.00400920026,2.16000,45.20000
,,,-0.00400880026,2.12000,44.80000
,,,-0.00400840025,2.08000,44.40000
,,,-0.00400800025,2.00000,43.60001
,,,-0.00400760025,1.96000,42.80000
,,,-0.00400720024,1.88000,41.60000
,,,-0.00400680024,1.84000,40.80000
,,,-0.00400640024,1.76000,40.00000
,,,-0.00400600024,1.68000,38.80000
,,,-0.00400560023,1.64000,37.60000
,,,-0.00400520023,1.56000,36.40000
,,,-0.00400480023,1.48000,35.20000
,,,-0.00400440022,1.40000,34.00000
,,,-0.00400400022,1.28000,32.80000
,,,-0.00400360022,1.20000,31.20000
,,,-0.00400320021,1.12000,29.60000
,,,-0.00400280021,1.04000,28.40000
,,,-0.00400240021,0.96000,26.80000
,,,-0.00400200021,0.84000,24.80000
,,,-0.00400160020,0.76000,23.20000
,,,-0.00400120020,0.64000,21.60000
,,,-0.00400080020,0.56000,19.60000
,,,-0.00400040019,0.44000,18.00000
,,,-0.00400000019,0.36000,16.00000
,,,-0.00399960019,0.24000,14.40000
,,,-0.00399920018,0.16000,12.40000
,,,-0.00399880018,0.04000,10.40000
,,,-0.00399840018,-0.08000,8.40000
,,,-0.00399800017,-0.16000,6.40000
,,,-0.00399760017,-0.28000,4.40000
,,,-0.00399720017,-0.40000,2.40000
,,,-0.00399680017,-0.48000,0.80000
,,,-0.00399640016,-0.60000,-1.60000
,,,-0.00399600016,-0.72000,-3.60000
,,,-0.00399560016,-0.84000,-5.20000
,,,-0.00399520015,-0.92000,-7.20000
,,,-0.00399480015,-1.04000,-9.20000
,,,-0.00399440015,-1.12000,-11.20000
,,,-0.00399400014,-1.24000,-13.20000
,,,-0.00399360014,-1.32000,-15.20000
,,,-0.00399320014,-1.44000,-16.80000
,,,-0.00399280014,-1.52000,-18.80000
,,,-0.00399240013,-1.64000,-20.40000
,,,-0.00399200013,-1.72000,-22.40000
,,,-0.00399160013,-1.80000,-24.00000
,,,-0.00399120012,-1.88000,-25.60000
,,,-0.00399080012,-1.96000,-27.20000
,,,-0.00399040012,-2.04000,-28.80000
,,,-0.00399000011,-2.12000,-30.40000
,,,-0.00398960011,-2.20000,-32.00000
,,,-0.00398920011,-2.24000,-33.60000
,,,-0.00398880010,-2.32000,-34.80000
,,,-0.00398840010,-2.36000,-36.00000
,,,-0.00398800010,-2.44000,-37.20000
,,,-0.00398760010,-2.48000,-38.40000
,,,-0.00398720009,-2.52000,-39.60000
,,,-0.00398680009,-2.56000,-40.80000
,,,-0.00398640009,-2.60000,-41.60000
,,,-0.00398600008,-2.60000,-42.40000
,,,-0.00398560008,-2.64000,-43.20000
,,,-0.00398520008,-2.64000,-44.00000
,,,-0.00398480007,-2.64000,-44.80000
,,,-0.00398440007,-2.64000,-45.60001
,,,-0.00398400007,-2.68000,-46.00000
,,,-0.00398360007,-2.68000,-46.40000
,,,-0.00398320006,-2.64000,-46.80000
,,,-0.00398280006,-2.64000,-47.20000
,,,-0.00398240006,-2.60000,-47.60001
,,,-0.00398200005,-2.60000,-47.60001
,,,-0.00398160005,-2.56000,-47.60001
,,,-0.00398120005,-2.52000,-47.60001
,,,-0.00398080004,-2.48000,-47.20000
,,,-0.00398040004,-2.44000,-47.20000
,,,-0.00398000004,-2.40000,-46.80000
,,,-0.00397960003,-2.32000,-46.40000
,,,-0.00397920003,-2.28000,-46.00000
,,,-0.00397880003,-2.24000,-45.60001
,,,-0.00397840003,-2.16000,-44.80000
,,,-0.00397800002,-2.08000,-44.40000
,,,-0.00397760002,-2.04000,-43.60001
,,,-0.00397720002,-1.96000,-42.80000
,,,-0.00397680001,-1.88000,-42.00000
,,,-0.00397640001,-1.80000,-40.80000
,,,-0.00397600001,-1.72000,-40.00000
,,,-0.00397560000,-1.60000,-38.80000
,,,-0.00397520000,-1.52000,-37.60000
,,,-0.00397480000,-1.44000,-36.40000
,,,-0.00397440000,-1.36000,-35.20000
,,,-0.00397399999,-1.24000,-33.60000
,,,-0.00397359999,-1.16000,-32.40000
,,,-0.00397319999,-1.08000,-30.80000
,,,-0.00397279998,-0.96000,-29.20000
,,,-0.00397239998,-0.88000,-27.60000
,,,-0.00397199998,-0.76000,-26.00000
,,,-0.00397159997,-0.68000,-24.40000
,,,-0.00397119997,-0.56000,-22.80000
,,,-0.00397079997,-0.48000,-21.20000
,,,-0.00397039996,-0.36000,-19.20000
,,,-0.00396999996,-0.24000,-17.20000
,,,-0.00396959996,-0.16000,-15.60000
,,,-0.00396919996,-0.04000,-13.60000
,,,-0.00396879995,0.04000,-11.60000
,,,-0.00396839995,0.16000,-9.60000
,,,-0.00396799995,0.24000,-8.00000
,,,-0.00396759994,0.36000,-6.00000
,,,-0.00396719994,0.48000,-4.00000
,,,-0.00396679994,0.56000,-2.00000
,,,-0.00396639993,0.64000,0.00
,,,-0.00396599993,0.76000,2.00000
,,,-0.00396559993,0.84000,4.00000
,,,-0.00396519993,0.96000,6.00000
,,,-0.00396479992,1.04000,8.00000
,,,-0.00396439992,1.12000,10.00000
,,,-0.00396399992,1.20000,12.00000
,,,-0.00396359991,1.32000,13.60000
,,,-0.00396319991,1.40000,15.60000
,,,-0.00396279991,1.48000,17.60000
,,,-0.00396239990,1.56000,19.20000
,,,-0.00396199990,1.60000,21.20000
,,,-0.00396159990,1.68000,22.80000
,,,-0.00396119989,1.76000,24.40000
,,,-0.00396079989,1.84000,26.00000
,,,-0.00396039989,1.88000,27.60000
,,,-0.00395999989,1.96000,29.20000
,,,-0.00395959988,2.00000,30.80000
,,,-0.00395919988,2.04000,32.40000
,,,-0.00395879988,2.12000,33.60000
,,,-0.00395839987,2.16000,34.80000
,,,-0.00395799987,2.20000,36.00000
,,,-0.00395759987,2.28000,37.60000
,,,-0.00395719986,2.28000,38.40000
,,,-0.00395679986,2.32000,39.60000
,,,-0.00395639986,2.36000,40.80000
,,,-0.00395599985,2.40000,41.60000
,,,-0.00395559985,2.40000,42.40000
,,,-0.00395519985,2.44000,43.20000
,,,-0.00395479985,2.44000,44.00000
,,,-0.00395439984,2.48000,44.40000
,,,-0.00395399984,2.44000,45.20000
,,,-0.00395359984,2.48000,45.60001
,,,-0.00395319983,2.48000,46.00000
,,,-0.00395279983,2.48000,46.40000
,,,-0.00395239983,2.48000,46.80000
,,,-0.00395199982,2.48000,47.20000
,,,-0.00395159982,2.44000,47.20000
,,,-0.00395119982,2.44000,47.20000
,,,-0.00395079982,2.40000,47.60001
,,,-0.00395040028,2.40000,47.20000
,,,-0.00395000027,2.36000,47.20000
,,,-0.00394960027,2.32000,46.80000
,,,-0.00394920027,2.28000,46.80000
,,,-0.00394880027,2.24000,46.40000
,,,-0.00394840026,2.20000,46.00000
,,,-0.00394800026,2.16000,45.20000
,,,-0.00394760026,2.12000,44.80000
,,,-0.00394720025,2.04000,44.00000
,,,-0.00394680025,2.00000,43.60001
,,,-0.00394640025,1.96000,42.40000
,,,-0.00394600024,1.88000,41.60000
,,,-0.00394560024,1.84000,40.80000
,,,-0.00394520024,1.76000,39.60000
,,,-0.00394480024,1.68000,38.80000
,,,-0.00394440023,1.60000,37.60000
,,,-0.00394400023,1.52000,36.40000
,,,-0.00394360023,1.48000,35.20000
,,,-0.00394320022,1.36000,33.60000
,,,-0.00394280022,1.28000,32.40000
,,,-0.00394240022,1.20000,30.80000
,,,-0.00394200021,1.12000,29.60000
,,,-0.00394160021,1.04000,28.00000
,,,-0.00394120021,0.92000,26.40000
,,,-0.00394080020,0.84000,24.40000
,,,-0.00394040020,0.76000,22.80000
,,,-0.00394000020,0.64000,21.20000
,,,-0.00393960020,0.56000,19.60000
,,,-0.00393920019,0.44000,17.60000
,,,-0.00393880019,0.32000,15.60000
,,,-0.00393840019,0.24000,14.00000
,,,-0.00393800018,0.12000,12.00000
,,,-0.00393760018,0.00,10.00000
,,,-0.00393720018,-0.08000,8.00000
,,,-0.00393680017,-0.20000,6.00000
,,,-0.00393640017,-0.32000,4.00000
,,,-0.00393600017,-0.40000,2.00000
,,,-0.00393560017,-0.52000,0.00
,,,-0.00393520016,-0.64000,-2.00000
,,,-0.00393480016,-0.72000,-3.60000
,,,-0.00393440016,-0.84000,-5.60000
,,,-0.00393400015,-0.96000,-7.60000
,,,-0.00393360015,-1.04000,-9.60000
,,,-0.00393320015,-1.16000,-11.60000
,,,-0.00393280014,-1.28000,-13.60000
,,,-0.00393240014,-1.36000,-15.20000
,,,-0.00393200014,-1.44000,-17.20000
,,,-0.00393160013,-1.56000,-19.20000
,,,-0.00393120013,-1.64000,-20.80000
,,,-0.00393080013,-1.72000,-22.40000
,,,-0.00393040013,-1.80000,-24.40000
,,,-0.00393000012,-1.92000,-26.00000
,,,-0.00392960012,-1.96000,-27.60000
,,,-0.00392920012,-2.04000,-29.20000
,,,-0.00392880011,-2.12000,-30.80000
,,,-0.00392840011,-2.20000,-32.40000
,,,-0.00392800011,-2.28000,-33.60000
,,,-0.00392760010,-2.32000,-35.20000
,,,-0.00392720010,-2.36000,-36.40000
,,,-0.00392680010,-2.44000,-37.60000
,,,-0.00392640010,-2.48000,-38.80000
,,,-0.00392600009,-2.52000,-40.00000
,,,-0.00392560009,-2.56000,-40.80000
,,,-0.00392520009,-2.60000,-42.00000
,,,-0.00392480008,-2.60000,-42.40000
,,,-0.00392440008,-2.64000,-43.60001
,,,-0.00392400008,-2.64000,-44.40000
,,,-0.00392360007,-2.64000,-45.20000
,,,-0.00392320007,-2.68000,-45.60001
,,,-0.00392280007,-2.64000,-46.00000
,,,-0.00392240006,-2.64000,-46.40000
,,,-0.00392200006,-2.64000,-46.80000
,,,-0.00392160006,-2.64000,-47.20000
,,,-0.00392120006,-2.60000,-47.20000
,,,-0.00392080005,-2.56000,-47.60001
,,,-0.00392040005,-2.56000,-47.60001
,,,-0.00392000005,-2.52000,-47.60001
,,,-0.00391960004,-2.48000,-47.20000
,,,-0.00391920004,-2.44000,-47.20000
,,,-0.00391880004,-2.36000,-46.80000
,,,-0.00391840003,-2.32000,-46.40000
,,,-0.00391800003,-2.28000,-46.00000
,,,-0.00391760003,-2.20000,-45.60001
,,,-0.00391720003,-2.16000,-44.80000
,,,-0.00391680002,-2.08000,-44.40000
,,,-0.00391640002,-2.00000,-43.60001
,,,-0.00391600002,-1.92000,-42.40000
,,,-0.00391560001,-1.88000,-41.60000
,,,-0.00391520001,-1.80000,-40.80000
,,,-0.00391480001,-1.68000,-39.60000
,,,-0.00391440000,-1.64000,-38.80000
,,,-0.00391400000,-1.52000,-37.60000
,,,-0.00391360000,-1.44000,-36.00000
,,,-0.00391319999,-1.36000,-34.80000
,,,-0.00391279999,-1.24000,-33.60000
,,,-0.00391239999,-1.16000,-32.00000
,,,-0.00391199999,-1.08000,-30.80000
,,,-0.00391159998,-0.96000,-29.20000
,,,-0.00391119998,-0.84000,-27.60000
,,,-0.00391079998,-0.76000,-26.00000
,,,-0.00391039997,-0.64000,-24.00000
,,,-0.00390999997,-0.56000,-22.40000
,,,-0.00390959997,-0.44000,-20.80000
,,,-0.00390919996,-0.36000,-18.80000
,,,-0.00390879996,-0.24000,-17.20000
,,,-0.00390839996,-0.16000,-15.20000
,,,-0.00390799996,-0.04000,-13.20000
,,,-0.00390759995,0.08000,-11.20000
,,,-0.00390719995,0.16000,-9.20000
,,,-0.00390679995,0.28000,-7.60000
,,,-0.00390639994,0.36000,-5.60000
,,,-0.00390599994,0.48000,-3.60000
,,,-0.00390559994,0.56000,-1.60000
,,,-0.00390519993,0.68000,0.40000
,,,-0.00390479993,0.76000,2.40000
,,,-0.00390440016,0.84000,4.40000
,,,-0.00390400016,0.96000,6.40000
,,,-0.00390360015,1.04000,8.40000
,,,-0.00390320015,1.12000,10.40000
,,,-0.00390280015,1.24000,12.00000
,,,-0.00390240015,1.32000,14.00000
,,,-0.00390200014,1.40000,16.00000
,,,-0.00390160014,1.48000,17.60000
,,,-0.00390120014,1.56000,19.60000
,,,-0.00390080013,1.64000,21.20000
,,,-0.00390040013,1.72000,23.20000
,,,-0.00390000013,1.80000,24.80000
,,,-0.00389960012,1.84000,26.40000
,,,-0.00389920012,1.92000,28.00000
,,,-0.00389880012,1.96000,29.60000
,,,-0.00389840011,2.04000,31.20000
,,,-0.00389800011,2.08000,32.40000
,,,-0.00389760011,2.12000,34.00000
,,,-0.00389720011,2.20000,35.20000
,,,-0.00389680010,2.24000,36.40000
,,,-0.00389640010,2.28000,37.60000
,,,-0.00389600010,2.32000,38.80000
,,,-0.00389560009,2.36000,40.00000
,,,-0.00389520009,2.36000,40.80000
,,,-0.00389480009,2.40000,41.60000
,,,-0.00389440008,2.40000,42.40000
,,,-0.00389400008,2.44000,43.20000
,,,-0.00389360008,2.48000,44.00000
,,,-0.00389320008,2.48000,44.80000
,,,-0.00389280007,2.48000,45.20000
,,,-0.00389240007,2.48000,46.00000
,,,-0.00389200007,2.48000,46.40000
,,,-0.00389160006,2.48000,46.80000
,,,-0.00389120006,2.48000,46.80000
,,,-0.00389080006,2.48000,47.20000
,,,-0.00389040005,2.44000,47.20000
,,,-0.00389000005,2.44000,47.20000
,,,-0.00388960005,2.40000,47.60001
,,,-0.00388920004,2.40000,47.20000
,,,-0.00388880004,2.36000,47.20000
,,,-0.00388840004,2.32000,46.80000
,,,-0.00388800004,2.28000,46.40000
,,,-0.00388760003,2.24000,46.00000
,,,-0.00388720003,2.20000,45.60001
,,,-0.00388680003,2.16000,45.20000
,,,-0.00388640002,2.08000,44.80000
,,,-0.00388600002,2.04000,44.00000
,,,-0.00388560002,2.00000,43.20000
,,,-0.00388520001,1.92000,42.40000
,,,-0.00388480001,1.88000,41.60000
,,,-0.00388440001,1.80000,40.40000
,,,-0.00388400001,1.76000,39.60000
,,,-0.00388360000,1.68000,38.40000
,,,-0.00388320000,1.60000,37.60000
,,,-0.00388280000,1.52000,36.00000
,,,-0.00388239999,1.44000,34.80000
,,,-0.00388199999,1.36000,33.60000
,,,-0.00388159999,1.28000,32.00000
,,,-0.00388119998,1.16000,30.80000
,,,-0.00388079998,1.08000,29.20000
,,,-0.00388039998,1.00000,27.60000
,,,-0.00387999997,0.92000,26.00000
,,,-0.00387959997,0.80000,24.40000
,,,-0.00387919997,0.72000,22.80000
,,,-0.00387879997,0.64000,20.80000
,,,-0.00387839996,0.52000,19.20000
,,,-0.00387799996,0.40000,17.20000
,,,-0.00387759996,0.32000,15.20000
,,,-0.00387719995,0.20000,13.60000
,,,-0.00387679995,0.12000,11.60000
,,,-0.00387639995,0.00,9.60000
,,,-0.00387599994,-0.12000,7.60000
