datosdia2/SDS00016.CSV

Record Length,20480,,Source,CH1,CH2
Sample Interval,CH1:0.0000004000000 CH2:0.0000004000000,,Second,Volt,Volt
Vertical Units,CH1:V CH2:V,,-0.00409599999,-0.56000,-0.00568
Vertical Scale,CH1:1.00 CH2:0.00,,-0.00409559999,-0.52000,-0.00552
Vertical Offset,CH1:0.00 CH2:0.00,,-0.00409519998,-0.44000,-0.00520
Horizontal Units,s,,-0.00409479998,-0.36000,-0.00552
Horizontal Scale,0.0002500000,,-0.00409439998,-0.32000,-0.00592
Model Number,SDS1102CML+,,-0.00409399997,-0.24000,-0.00576
Serial Number,SDS1MHEX5R4100,,-0.00409359997,-0.20000,-0.00520
Software Version,6.01.01.21R2,,-0.00409319997,-0.12000,-0.00592
,,,-0.00409279997,-0.04000,-0.00584
,,,-0.00409239996,0.00,-0.00560
,,,-0.00409199996,0.08000,-0.00568
,,,-0.00409159996,0.16000,-0.00568
,,,-0.00409119995,0.20000,-0.00560
,,,-0.00409079995,0.28000,-0.00568
,,,-0.00409039995,0.32000,-0.00552
,,,-0.00408999994,0.40000,-0.00544
,,,-0.00408959994,0.48000,-0.00520
,,,-0.00408919994,0.52000,-0.00560
,,,-0.00408879993,0.56000,-0.00512
,,,-0.00408839993,0.64000,-0.00520
,,,-0.00408799993,0.68000,-0.00488
,,,-0.00408759993,0.72000,-0.00504
,,,-0.00408719992,0.80000,-0.00488
,,,-0.00408679992,0.84000,-0.00472
,,,-0.00408639992,0.88000,-0.00440
,,,-0.00408599991,0.92000,-0.00448
,,,-0.00408559991,1.00000,-0.00416
,,,-0.00408519991,1.04000,-0.00448
,,,-0.00408479990,1.08000,-0.00376
,,,-0.00408439990,1.12000,-0.00392
,,,-0.00408399990,1.16000,-0.00336
,,,-0.00408359990,1.16000,-0.00376
,,,-0.00408319989,1.20000,-0.00328
,,,-0.00408279989,1.24000,-0.00304
,,,-0.00408239989,1.28000,-0.00256
,,,-0.00408199988,1.32000,-0.00296
,,,-0.00408159988,1.32000,-0.00240
,,,-0.00408119988,1.36000,-0.00248
,,,-0.00408079987,1.36000,-0.00184
,,,-0.00408039987,1.40000,-0.00208
,,,-0.00407999987,1.40000,-0.00176
,,,-0.00407959986,1.44000,-0.00112
,,,-0.00407919986,1.44000,-0.00144
,,,-0.00407879986,1.44000,-0.00120
,,,-0.00407839986,1.44000,-0.00080
,,,-0.00407799985,1.48000,-0.00048
,,,-0.00407759985,1.48000,-0.00064
,,,-0.00407719985,1.48000,-0.00024
,,,-0.00407679984,1.48000,0.00
,,,-0.00407639984,1.48000,0.00056
,,,-0.00407599984,1.48000,0.00016
,,,-0.00407559983,1.48000,0.00088
,,,-0.00407519983,1.48000,0.00080
,,,-0.00407479983,1.44000,0.00136
,,,-0.00407439983,1.44000,0.00112
,,,-0.00407399982,1.44000,0.00136
,,,-0.00407359982,1.40000,0.00168
,,,-0.00407319982,1.40000,0.00192
,,,-0.00407280028,1.36000,0.00208
,,,-0.00407240028,1.36000,0.00224
,,,-0.00407200027,1.32000,0.00240
,,,-0.00407160027,1.32000,0.00264
,,,-0.00407120027,1.28000,0.00280
,,,-0.00407080026,1.24000,0.00288
,,,-0.00407040026,1.20000,0.00304
,,,-0.00407000026,1.16000,0.00320
,,,-0.00406960025,1.16000,0.00368
,,,-0.00406920025,1.12000,0.00368
,,,-0.00406880025,1.08000,0.00352
,,,-0.00406840025,1.04000,0.00376
,,,-0.00406800024,1.00000,0.00400
,,,-0.00406760024,0.96000,0.00416
,,,-0.00406720024,0.92000,0.00408
,,,-0.00406680023,0.88000,0.00408
,,,-0.00406640023,0.84000,0.00424
,,,-0.00406600023,0.80000,0.00432
,,,-0.00406560022,0.76000,0.00440
,,,-0.00406520022,0.68000,0.00464
,,,-0.00406480022,0.64000,0.00448
,,,-0.00406440021,0.60000,0.00408
,,,-0.00406400021,0.56000,0.00472
,,,-0.00406360021,0.48000,0.00480
,,,-0.00406320021,0.44000,0.00448
,,,-0.00406280020,0.36000,0.00432
,,,-0.00406240020,0.32000,0.00480
,,,-0.00406200020,0.28000,0.00464
,,,-0.00406160019,0.20000,0.00472
,,,-0.00406120019,0.16000,0.00448
,,,-0.00406080019,0.08000,0.00464
,,,-0.00406040018,0.04000,0.00456
,,,-0.00406000018,-0.04000,0.00456
,,,-0.00405960018,-0.08000,0.00440
,,,-0.00405920018,-0.16000,0.00440
,,,-0.00405880017,-0.20000,0.00424
,,,-0.00405840017,-0.28000,0.00440
,,,-0.00405800017,-0.32000,0.00424
,,,-0.00405760016,-0.40000,0.00384
,,,-0.00405720016,-0.44000,0.00408
,,,-0.00405680016,-0.52000,0.00368
,,,-0.00405640015,-0.60000,0.00392
,,,-0.00405600015,-0.64000,0.00336
,,,-0.00405560015,-0.72000,0.00360
,,,-0.00405520014,-0.76000,0.00296
,,,-0.00405480014,-0.84000,0.00360
,,,-0.00405440014,-0.88000,0.00288
,,,-0.00405400014,-0.96000,0.00272
,,,-0.00405360013,-1.00000,0.00248
,,,-0.00405320013,-1.04000,0.00280
,,,-0.00405280013,-1.12000,0.00224
,,,-0.00405240012,-1.16000,0.00224
,,,-0.00405200012,-1.20000,0.00176
,,,-0.00405160012,-1.24000,0.00176
,,,-0.00405120011,-1.32000,0.00160
,,,-0.00405080011,-1.36000,0.00144
,,,-0.00405040011,-1.40000,0.00104
,,,-0.00405000011,-1.44000,0.00080
,,,-0.00404960010,-1.48000,0.00128
,,,-0.00404920010,-1.52000,0.00
,,,-0.00404880010,-1.52000,0.00016
,,,-0.00404840009,-1.56000,0.00016
,,,-0.00404800009,-1.60000,0.00
,,,-0.00404760009,-1.60000,-0.00064
,,,-0.00404720008,-1.64000,-0.00040
,,,-0.00404680008,-1.64000,-0.00064
,,,-0.00404640008,-1.64000,-0.00112
,,,-0.00404600007,-1.68000,-0.00128
,,,-0.00404560007,-1.68000,-0.00120
,,,-0.00404520007,-1.68000,-0.00168
,,,-0.00404480007,-1.68000,-0.00168
,,,-0.00404440006,-1.64000,-0.00216
,,,-0.00404400006,-1.64000,-0.00224
,,,-0.00404360006,-1.64000,-0.00216
,,,-0.00404320005,-1.60000,-0.00280
,,,-0.00404280005,-1.56000,-0.00272
,,,-0.00404240005,-1.56000,-0.00304
,,,-0.00404200004,-1.52000,-0.00320
,,,-0.00404160004,-1.48000,-0.00328
,,,-0.00404120004,-1.44000,-0.00376
,,,-0.00404080003,-1.40000,-0.00376
,,,-0.00404040003,-1.36000,-0.00400
,,,-0.00404000003,-1.32000,-0.00392
,,,-0.00403960003,-1.28000,-0.00424
,,,-0.00403920002,-1.24000,-0.00456
,,,-0.00403880002,-1.20000,-0.00464
,,,-0.00403840002,-1.12000,-0.00456
,,,-0.00403800001,-1.08000,-0.00472
,,,-0.00403760001,-1.00000,-0.00464
,,,-0.00403720001,-0.96000,-0.00512
,,,-0.00403680000,-0.88000,-0.00536
,,,-0.00403640000,-0.84000,-0.00504
,,,-0.00403600000,-0.76000,-0.00528
,,,-0.00403560000,-0.72000,-0.00520
,,,-0.00403519999,-0.64000,-0.00584
,,,-0.00403479999,-0.56000,-0.00528
,,,-0.00403439999,-0.52000,-0.00584
,,,-0.00403399998,-0.44000,-0.00536
,,,-0.00403359998,-0.40000,-0.00600
,,,-0.00403319998,-0.32000,-0.00552
,,,-0.00403279997,-0.24000,-0.00560
,,,-0.00403239997,-0.20000,-0.00576
,,,-0.00403199997,-0.12000,-0.00600
,,,-0.00403159996,-0.04000,-0.00536
,,,-0.00403119996,0.00,-0.00592
,,,-0.00403079996,0.08000,-0.00576
,,,-0.00403039996,0.12000,-0.00552
,,,-0.00402999995,0.20000,-0.00560
,,,-0.00402959995,0.28000,-0.00552
,,,-0.00402919995,0.32000,-0.00568
,,,-0.00402879994,0.40000,-0.00520
,,,-0.00402839994,0.44000,-0.00560
,,,-0.00402799994,0.52000,-0.00528
,,,-0.00402759993,0.56000,-0.00560
,,,-0.00402719993,0.64000,-0.00480
,,,-0.00402679993,0.68000,-0.00520
,,,-0.00402639993,0.72000,-0.00472
,,,-0.00402599992,0.80000,-0.00512
,,,-0.00402559992,0.84000,-0.00464
,,,-0.00402519992,0.88000,-0.00472
,,,-0.00402479991,0.92000,-0.00424
,,,-0.00402439991,0.96000,-0.00448
,,,-0.00402399991,1.04000,-0.00408
,,,-0.00402359990,1.08000,-0.00408
,,,-0.00402319990,1.12000,-0.00368
,,,-0.00402279990,1.16000,-0.00368
,,,-0.00402239989,1.20000,-0.00352
,,,-0.00402199989,1.20000,-0.00320
,,,-0.00402159989,1.24000,-0.00320
,,,-0.00402119989,1.28000,-0.00272
,,,-0.00402079988,1.32000,-0.00296
,,,-0.00402039988,1.32000,-0.00240
,,,-0.00401999988,1.36000,-0.00264
,,,-0.00401959987,1.40000,-0.00168
,,,-0.00401919987,1.40000,-0.00208
,,,-0.00401879987,1.44000,-0.00160
,,,-0.00401839986,1.44000,-0.00192
,,,-0.00401799986,1.44000,-0.00096
,,,-0.00401759986,1.48000,-0.00128
,,,-0.00401719986,1.48000,-0.00056
,,,-0.00401679985,1.48000,-0.00096
,,,-0.00401639985,1.48000,0.00016
,,,-0.00401599985,1.48000,-0.00040
,,,-0.00401559984,1.48000,-0.00024
,,,-0.00401519984,1.48000,0.00008
,,,-0.00401479984,1.48000,0.00072
,,,-0.00401439983,1.48000,0.00032
,,,-0.00401399983,1.48000,0.00088
,,,-0.00401359983,1.48000,0.00104
,,,-0.00401319982,1.44000,0.00128
,,,-0.00401279982,1.44000,0.00120
,,,-0.00401239982,1.40000,0.00184
,,,-0.00401199982,1.40000,0.00176
,,,-0.00401160028,1.40000,0.00192
,,,-0.00401120028,1.36000,0.00208
,,,-0.00401080027,1.32000,0.00224
,,,-0.00401040027,1.32000,0.00280
,,,-0.00401000027,1.28000,0.00264
,,,-0.00400960026,1.24000,0.00304
,,,-0.00400920026,1.20000,0.00288
,,,-0.00400880026,1.16000,0.00336
,,,-0.00400840025,1.16000,0.00352
,,,-0.00400800025,1.12000,0.00328
,,,-0.00400760025,1.08000,0.00376
,,,-0.00400720024,1.04000,0.00384
,,,-0.00400680024,1.00000,0.00392
,,,-0.00400640024,0.96000,0.00424
,,,-0.00400600024,0.92000,0.00400
,,,-0.00400560023,0.88000,0.00416
,,,-0.00400520023,0.84000,0.00424
,,,-0.00400480023,0.80000,0.00440
,,,-0.00400440022,0.76000,0.00448
,,,-0.00400400022,0.68000,0.00448
,,,-0.00400360022,0.64000,0.00448
,,,-0.00400320021,0.60000,0.00448
,,,-0.00400280021,0.56000,0.00464
,,,-0.00400240021,0.48000,0.00472
,,,-0.00400200021,0.44000,0.00432
,,,-0.00400160020,0.40000,0.00488
,,,-0.00400120020,0.32000,0.00472
,,,-0.00400080020,0.28000,0.00456
,,,-0.00400040019,0.20000,0.00488
,,,-0.00400000019,0.16000,0.00432
,,,-0.00399960019,0.08000,0.00504
,,,-0.00399920018,0.04000,0.00424
,,,-0.00399880018,-0.04000,0.00464
,,,-0.00399840018,-0.08000,0.00464
,,,-0.00399800017,-0.16000,0.00424
,,,-0.00399760017,-0.20000,0.00432
,,,-0.00399720017,-0.28000,0.00448
,,,-0.00399680017,-0.32000,0.00400
,,,-0.00399640016,-0.40000,0.00416
,,,-0.00399600016,-0.44000,0.00360
,,,-0.00399560016,-0.52000,0.00432
,,,-0.00399520015,-0.60000,0.00344
,,,-0.00399480015,-0.64000,0.00368
,,,-0.00399440015,-0.72000,0.00320
,,,-0.00399400014,-0.76000,0.00336
,,,-0.00399360014,-0.84000,0.00296
,,,-0.00399320014,-0.88000,0.00312
,,,-0.00399280014,-0.96000,0.00256
,,,-0.00399240013,-1.00000,0.00280
,,,-0.00399200013,-1.04000,0.00232
,,,-0.00399160013,-1.12000,0.00264
,,,-0.00399120012,-1.16000,0.00184
,,,-0.00399080012,-1.24000,0.00208
,,,-0.00399040012,-1.28000,0.00152
,,,-0.00399000011,-1.32000,0.00176
,,,-0.00398960011,-1.36000,0.00144
,,,-0.00398920011,-1.40000,0.00112
,,,-0.00398880010,-1.44000,0.00088
,,,-0.00398840010,-1.48000,0.00080
,,,-0.00398800010,-1.52000,0.00040
,,,-0.00398760010,-1.52000,0.00048
,,,-0.00398720009,-1.56000,0.00
,,,-0.00398680009,-1.60000,-0.00016
,,,-0.00398640009,-1.60000,-0.00032
,,,-0.00398600008,-1.64000,-0.00056
,,,-0.00398560008,-1.64000,-0.00080
,,,-0.00398520008,-1.68000,-0.00112
,,,-0.00398480007,-1.68000,-0.00096
,,,-0.00398440007,-1.68000,-0.00152
,,,-0.00398400007,-1.68000,-0.00152
,,,-0.00398360007,-1.68000,-0.00200
,,,-0.00398320006,-1.68000,-0.00208
,,,-0.00398280006,-1.64000,-0.00176
,,,-0.00398240006,-1.64000,-0.00240
,,,-0.00398200005,-1.64000,-0.00296
,,,-0.00398160005,-1.60000,-0.00264
,,,-0.00398120005,-1.56000,-0.00280
,,,-0.00398080004,-1.52000,-0.00320
,,,-0.00398040004,-1.52000,-0.00360
,,,-0.00398000004,-1.48000,-0.00352
,,,-0.00397960003,-1.44000,-0.00368
,,,-0.00397920003,-1.36000,-0.00416
,,,-0.00397880003,-1.32000,-0.00360
,,,-0.00397840003,-1.28000,-0.00448
,,,-0.00397800002,-1.24000,-0.00440
,,,-0.00397760002,-1.20000,-0.00456
,,,-0.00397720002,-1.12000,-0.00464
,,,-0.00397680001,-1.08000,-0.00464
,,,-0.00397640001,-1.00000,-0.00496
,,,-0.00397600001,-0.96000,-0.00504
,,,-0.00397560000,-0.88000,-0.00512
,,,-0.00397520000,-0.84000,-0.00536
,,,-0.00397480000,-0.76000,-0.00504
,,,-0.00397440000,-0.72000,-0.00576
,,,-0.00397399999,-0.64000,-0.00552
,,,-0.00397359999,-0.56000,-0.00544
,,,-0.00397319999,-0.52000,-0.00568
,,,-0.00397279998,-0.44000,-0.00560
,,,-0.00397239998,-0.36000,-0.00600
,,,-0.00397199998,-0.32000,-0.00584
,,,-0.00397159997,-0.24000,-0.00576
,,,-0.00397119997,-0.16000,-0.00584
,,,-0.00397079997,-0.08000,-0.00568
,,,-0.00397039996,-0.04000,-0.00584
,,,-0.00396999996,0.04000,-0.00576
,,,-0.00396959996,0.08000,-0.00576
,,,-0.00396919996,0.16000,-0.00568
,,,-0.00396879995,0.24000,-0.00568
,,,-0.00396839995,0.28000,-0.00576
,,,-0.00396799995,0.36000,-0.00568
,,,-0.00396759994,0.40000,-0.00504
,,,-0.00396719994,0.48000,-0.00584
,,,-0.00396679994,0.52000,-0.00512
,,,-0.00396639993,0.60000,-0.00552
,,,-0.00396599993,0.64000,-0.00504
,,,-0.00396559993,0.72000,-0.00504
,,,-0.00396519993,0.76000,-0.00528
,,,-0.00396479992,0.80000,-0.00464
,,,-0.00396439992,0.88000,-0.00448
,,,-0.00396399992,0.92000,-0.00496
,,,-0.00396359991,0.96000,-0.00432
,,,-0.00396319991,1.00000,-0.00416
,,,-0.00396279991,1.04000,-0.00432
,,,-0.00396239990,1.08000,-0.00400
,,,-0.00396199990,1.12000,-0.00376
,,,-0.00396159990,1.16000,-0.00344
,,,-0.00396119989,1.20000,-0.00384
,,,-0.00396079989,1.24000,-0.00312
,,,-0.00396039989,1.28000,-0.00312
,,,-0.00395999989,1.28000,-0.00288
,,,-0.00395959988,1.32000,-0.00272
,,,-0.00395919988,1.36000,-0.00256
,,,-0.00395879988,1.36000,-0.00216
,,,-0.00395839987,1.40000,-0.00200
,,,-0.00395799987,1.40000,-0.00200
,,,-0.00395759987,1.44000,-0.00160
,,,-0.00395719986,1.44000,-0.00160
,,,-0.00395679986,1.44000,-0.00128
,,,-0.00395639986,1.44000,-0.00088
,,,-0.00395599985,1.48000,-0.00112
,,,-0.00395559985,1.48000,-0.00048
,,,-0.00395519985,1.48000,-0.00080
,,,-0.00395479985,1.48000,0.00016
,,,-0.00395439984,1.48000,-0.00016
,,,-0.00395399984,1.48000,0.00024
,,,-0.00395359984,1.48000,0.00048
,,,-0.00395319983,1.48000,0.00072
,,,-0.00395279983,1.48000,0.00096
,,,-0.00395239983,1.44000,0.00104
,,,-0.00395199982,1.44000,0.00136
,,,-0.00395159982,1.44000,0.00144
,,,-0.00395119982,1.40000,0.00176
,,,-0.00395079982,1.40000,0.00200
,,,-0.00395040028,1.40000,0.00224
,,,-0.00395000027,1.36000,0.00200
,,,-0.00394960027,1.32000,0.00280
,,,-0.00394920027,1.28000,0.00240
,,,-0.00394880027,1.28000,0.00320
,,,-0.00394840026,1.24000,0.00256
,,,-0.00394800026,1.20000,0.00320
,,,-0.00394760026,1.16000,0.00288
,,,-0.00394720025,1.16000,0.00352
,,,-0.00394680025,1.12000,0.00368
,,,-0.00394640025,1.08000,0.00360
,,,-0.00394600024,1.04000,0.00328
,,,-0.00394560024,1.00000,0.00432
,,,-0.00394520024,0.96000,0.00400
,,,-0.00394480024,0.92000,0.00408
,,,-0.00394440023,0.88000,0.00400
,,,-0.00394400023,0.84000,0.00440
,,,-0.00394360023,0.76000,0.00456
,,,-0.00394320022,0.72000,0.00440
,,,-0.00394280022,0.68000,0.00456
,,,-0.00394240022,0.64000,0.00424
,,,-0.00394200021,0.60000,0.00488
,,,-0.00394160021,0.52000,0.00456
,,,-0.00394120021,0.48000,0.00456
,,,-0.00394080020,0.44000,0.00448
,,,-0.00394040020,0.36000,0.00488
,,,-0.00394000020,0.32000,0.00464
,,,-0.00393960020,0.28000,0.00488
,,,-0.00393920019,0.20000,0.00448
,,,-0.00393880019,0.12000,0.00472
,,,-0.00393840019,0.08000,0.00448
,,,-0.00393800018,0.04000,0.00472
,,,-0.00393760018,-0.04000,0.00440
,,,-0.00393720018,-0.12000,0.00440
,,,-0.00393680017,-0.16000,0.00432
,,,-0.00393640017,-0.24000,0.00432
,,,-0.00393600017,-0.28000,0.00432
,,,-0.00393560017,-0.36000,0.00408
,,,-0.00393520016,-0.40000,0.00384
,,,-0.00393480016,-0.48000,0.00368
,,,-0.00393440016,-0.56000,0.00408
,,,-0.00393400015,-0.60000,0.00344
,,,-0.00393360015,-0.68000,0.00352
,,,-0.00393320015,-0.72000,0.00312
,,,-0.00393280014,-0.80000,0.00344
,,,-0.00393240014,-0.84000,0.00288
,,,-0.00393200014,-0.92000,0.00312
,,,-0.00393160013,-0.96000,0.00240
,,,-0.00393120013,-1.00000,0.00272
,,,-0.00393080013,-1.08000,0.00240
,,,-0.00393040013,-1.12000,0.00240
,,,-0.00393000012,-1.20000,0.00152
,,,-0.00392960012,-1.24000,0.00176
,,,-0.00392920012,-1.28000,0.00208
,,,-0.00392880011,-1.32000,0.00128
,,,-0.00392840011,-1.36000,0.00096
,,,-0.00392800011,-1.40000,0.00104
,,,-0.00392760010,-1.44000,0.00104
,,,-0.00392720010,-1.48000,0.00032
,,,-0.00392680010,-1.52000,0.00080
,,,-0.00392640010,-1.56000,-0.00016
,,,-0.00392600009,-1.60000,0.00016
,,,-0.00392560009,-1.60000,-0.00056
,,,-0.00392520009,-1.64000,-0.00016
,,,-0.00392480008,-1.64000,-0.00080
,,,-0.00392440008,-1.64000,-0.00080
,,,-0.00392400008,-1.68000,-0.00128
,,,-0.00392360007,-1.68000,-0.00104
,,,-0.00392320007,-1.68000,-0.00160
,,,-0.00392280007,-1.68000,-0.00144
,,,-0.00392240006,-1.68000,-0.00224
,,,-0.00392200006,-1.68000,-0.00192
,,,-0.00392160006,-1.64000,-0.00232
,,,-0.00392120006,-1.64000,-0.00248
,,,-0.00392080005,-1.60000,-0.00256
,,,-0.00392040005,-1.56000,-0.00320
,,,-0.00392000005,-1.56000,-0.00288
,,,-0.00391960004,-1.52000,-0.00344
,,,-0.00391920004,-1.48000,-0.00336
,,,-0.00391880004,-1.44000,-0.00392
,,,-0.00391840003,-1.40000,-0.00376
,,,-0.00391800003,-1.36000,-0.00416
,,,-0.00391760003,-1.32000,-0.00376
,,,-0.00391720003,-1.28000,-0.00480
,,,-0.00391680002,-1.20000,-0.00432
,,,-0.00391640002,-1.16000,-0.00496
,,,-0.00391600002,-1.12000,-0.00448
,,,-0.00391560001,-1.04000,-0.00504
,,,-0.00391520001,-1.00000,-0.00496
,,,-0.00391480001,-0.92000,-0.00520
,,,-0.00391440000,-0.88000,-0.00520
,,,-0.00391400000,-0.80000,-0.00520
,,,-0.00391360000,-0.76000,-0.00528
,,,-0.00391319999,-0.68000,-0.00544
,,,-0.00391279999,-0.64000,-0.00568
,,,-0.00391239999,-0.56000,-0.00536
,,,-0.00391199999,-0.48000,-0.00576
,,,-0.00391159998,-0.44000,-0.00560
,,,-0.00391119998,-0.36000,-0.00584
,,,-0.00391079998,-0.28000,-0.00584
,,,-0.00391039997,-0.24000,-0.00576
,,,-0.00390999997,-0.16000,-0.00520
,,,-0.00390959997,-0.08000,-0.00608
,,,-0.00390919996,-0.04000,-0.00608
,,,-0.00390879996,0.04000,-0.00568
,,,-0.00390839996,0.12000,-0.00560
,,,-0.00390799996,0.16000,-0.00616
,,,-0.00390759995,0.24000,-0.00560
,,,-0.00390719995,0.28000,-0.00584
,,,-0.00390679995,0.36000,-0.00560
,,,-0.00390639994,0.44000,-0.00552
,,,-0.00390599994,0.48000,-0.00560
,,,-0.00390559994,0.56000,-0.00544
,,,-0.00390519993,0.60000,-0.00544
,,,-0.00390479993,0.68000,-0.00504
,,,-0.00390440016,0.72000,-0.00504
,,,-0.00390400016,0.76000,-0.00528
,,,-0.00390360015,0.80000,-0.00480
,,,-0.00390320015,0.88000,-0.00472
,,,-0.00390280015,0.92000,-0.00456
,,,-0.00390240015,0.96000,-0.00440
,,,-0.00390200014,1.00000,-0.00448
,,,-0.00390160014,1.04000,-0.00384
,,,-0.00390120014,1.08000,-0.00408
,,,-0.00390080013,1.12000,-0.00352
,,,-0.00390040013,1.16000,-0.00376
,,,-0.00390000013,1.20000,-0.00344
,,,-0.00389960012,1.24000,-0.00328
,,,-0.00389920012,1.28000,-0.00288
,,,-0.00389880012,1.32000,-0.00288
,,,-0.00389840011,1.32000,-0.00272
,,,-0.00389800011,1.36000,-0.00272
,,,-0.00389760011,1.36000,-0.00208
,,,-0.00389720011,1.40000,-0.00192
,,,-0.00389680010,1.40000,-0.00184
,,,-0.00389640010,1.44000,-0.00192
,,,-0.00389600010,1.44000,-0.00144
,,,-0.00389560009,1.44000,-0.00104
,,,-0.00389520009,1.44000,-0.00104
,,,-0.00389480009,1.48000,-0.00072
,,,-0.00389440008,1.48000,-0.00064
,,,-0.00389400008,1.48000,-0.00024
,,,-0.00389360008,1.48000,-0.00008
,,,-0.00389320008,1.48000,0.00016
,,,-0.00389280007,1.48000,0.00016
,,,-0.00389240007,1.48000,0.00048
,,,-0.00389200007,1.48000,0.00072
,,,-0.00389160006,1.48000,0.00112
,,,-0.00389120006,1.44000,0.00104
,,,-0.00389080006,1.44000,0.00160
,,,-0.00389040005,1.44000,0.00088
,,,-0.00389000005,1.40000,0.00224
,,,-0.00388960005,1.40000,0.00216
,,,-0.00388920004,1.36000,0.00176
,,,-0.00388880004,1.36000,0.00216
,,,-0.00388840004,1.32000,0.00256
,,,-0.00388800004,1.28000,0.00288
,,,-0.00388760003,1.28000,0.00272
,,,-0.00388720003,1.24000,0.00312
,,,-0.00388680003,1.20000,0.00288
,,,-0.00388640002,1.16000,0.00344
,,,-0.00388600002,1.12000,0.00344
,,,-0.00388560002,1.08000,0.00360
,,,-0.00388520001,1.08000,0.00352
,,,-0.00388480001,1.04000,0.00400
,,,-0.00388440001,1.00000,0.00392
,,,-0.00388400001,0.92000,0.00424
,,,-0.00388360000,0.88000,0.00392
,,,-0.00388320000,0.84000,0.00432
,,,-0.00388280000,0.80000,0.00432
,,,-0.00388239999,0.76000,0.00448
,,,-0.00388199999,0.72000,0.00448
,,,-0.00388159999,0.68000,0.00440
,,,-0.00388119998,0.64000,0.00464
,,,-0.00388079998,0.56000,0.00480
,,,-0.00388039998,0.52000,0.00472
,,,-0.00387999997,0.48000,0.00472
,,,-0.00387959997,0.40000,0.00456
,,,-0.00387919997,0.36000,0.00480
,,,-0.00387879997,0.28000,0.00472
,,,-0.00387839996,0.24000,0.00472
,,,-0.00387799996,0.16000,0.00456
,,,-0.00387759996,0.12000,0.00456
,,,-0.00387719995,0.08000,0.00480
,,,-0.00387679995,0.00,0.00464
,,,-0.00387639995,-0.08000,0.00448
,,,-0.00387599994,-0.12000,0.00448
,,,-0.00387559994,-0.16000,0.00416
,,,-0.00387519994,-0.24000,0.00448
,,,-0.00387479994,-0.32000,0.00416
,,,-0.00387439993,-0.36000,0.00408
,,,-0.00387399993,-0.44000,0.00392
,,,-0.00387360016,-0.48000,0.00392
,,,-0.00387320016,-0.56000,0.00392
,,,-0.00387280015,-0.64000,0.00360
,,,-0.00387240015,-0.68000,0.00344
,,,-0.00387200015,-0.72000,0.00336
,,,-0.00387160014,-0.80000,0.00328
,,,-0.00387120014,-0.88000,0.00312
