datosdia1/SDS00012.CSV

Record Length,20480,,Source,CH1,CH2
Sample Interval,CH1:0.0000000400000 CH2:0.0000000400000,,Second,Volt,Volt
Vertical Units,CH1:V CH2:V,,-0.00040960000,0.90000,0.00
Vertical Scale,CH1:0.50 CH2:0.20,,-0.00040955999,0.88000,0.00
Vertical Offset,CH1:0.00 CH2:0.00,,-0.00040952000,0.88000,0.00
Horizontal Units,s,,-0.00040948001,0.90000,0.00
Horizontal Scale,0.0000250000,,-0.00040943999,0.88000,0.00
Model Number,SDS1102CML+,,-0.00040940000,0.88000,0.00
Serial Number,SDS1MHEX5R4100,,-0.00040935999,0.88000,0.00
Software Version,6.01.01.21R2,,-0.00040932000,0.88000,0.00
,,,-0.00040928001,0.88000,0.00
,,,-0.00040923999,0.88000,0.00
,,,-0.00040920000,0.88000,0.00
,,,-0.00040915998,0.88000,0.00
,,,-0.00040912000,0.88000,0.00
,,,-0.00040908001,0.88000,0.00
,,,-0.00040903999,0.88000,0.00
,,,-0.00040900000,0.88000,0.00
,,,-0.00040896001,0.88000,0.00
,,,-0.00040891999,0.88000,0.00
,,,-0.00040888001,0.88000,0.00
,,,-0.00040883999,0.88000,0.00
,,,-0.00040880000,0.88000,0.00
,,,-0.00040876001,0.88000,0.00
,,,-0.00040871999,0.88000,0.00800
,,,-0.00040868000,0.88000,0.00
,,,-0.00040863999,0.88000,0.00
,,,-0.00040860000,0.88000,0.00
,,,-0.00040856001,0.88000,0.00
,,,-0.00040851999,0.88000,0.00
,,,-0.00040848000,0.88000,0.00800
,,,-0.00040843998,0.88000,0.00800
,,,-0.00040840000,0.88000,0.00800
,,,-0.00040836001,0.88000,0.00
,,,-0.00040831999,0.88000,0.00800
,,,-0.00040828000,0.88000,0.00800
,,,-0.00040824001,0.88000,0.00800
,,,-0.00040819999,0.86000,0.00800
,,,-0.00040816001,0.88000,0.00800
,,,-0.00040811999,0.88000,0.00800
,,,-0.00040808000,0.86000,0.00800
,,,-0.00040804001,0.88000,0.00
,,,-0.00040799999,0.86000,0.00800
,,,-0.00040796000,0.86000,0.00800
,,,-0.00040791999,0.88000,0.00800
,,,-0.00040788000,0.86000,0.00800
,,,-0.00040784001,0.86000,0.00800
,,,-0.00040779999,0.86000,0.00800
,,,-0.00040776000,0.86000,0.00800
,,,-0.00040771998,0.86000,0.00800
,,,-0.00040768000,0.86000,0.00
,,,-0.00040764001,0.86000,0.00800
,,,-0.00040759999,0.86000,0.00800
,,,-0.00040756000,0.86000,0.00
,,,-0.00040751998,0.84000,0.00800
,,,-0.00040747999,0.86000,0.00800
,,,-0.00040744001,0.86000,0.00800
,,,-0.00040739999,0.84000,0.00
,,,-0.00040736000,0.86000,0.00800
,,,-0.00040732001,0.84000,0.00800
,,,-0.00040727999,0.84000,0.00800
,,,-0.00040724000,0.86000,0.00
,,,-0.00040719999,0.84000,0.00800
,,,-0.00040716000,0.84000,0.00800
,,,-0.00040712001,0.84000,0.00800
,,,-0.00040707999,0.84000,0.00800
,,,-0.00040704000,0.84000,0.00800
,,,-0.00040699998,0.84000,0.00800
,,,-0.00040696000,0.84000,0.00800
,,,-0.00040692001,0.84000,0.00800
,,,-0.00040687999,0.82000,0.00800
,,,-0.00040684000,0.84000,0.00800
,,,-0.00040679998,0.84000,0.00800
,,,-0.00040675999,0.84000,0.00800
,,,-0.00040672001,0.82000,0.00800
,,,-0.00040667999,0.82000,0.00800
,,,-0.00040664000,0.82000,0.00800
,,,-0.00040660001,0.82000,0.00800
,,,-0.00040655999,0.82000,0.00800
,,,-0.00040652000,0.82000,0.00800
,,,-0.00040647999,0.82000,0.00800
,,,-0.00040644000,0.82000,0.00800
,,,-0.00040640001,0.82000,0.00800
,,,-0.00040635999,0.82000,0.00800
,,,-0.00040632000,0.82000,0.00800
,,,-0.00040627999,0.82000,0.00800
,,,-0.00040624000,0.82000,0.00800
,,,-0.00040620001,0.82000,0.00800
,,,-0.00040615999,0.80000,0.01600
,,,-0.00040612000,0.82000,0.00800
,,,-0.00040607998,0.80000,0.00800
,,,-0.00040604000,0.80000,0.00800
,,,-0.00040600001,0.80000,0.00800
,,,-0.00040595999,0.80000,0.00800
,,,-0.00040592000,0.80000,0.00800
,,,-0.00040588001,0.80000,0.01600
,,,-0.00040583999,0.80000,0.01600
,,,-0.00040580000,0.78000,0.00800
,,,-0.00040575999,0.78000,0.01600
,,,-0.00040572000,0.78000,0.01600
,,,-0.00040568001,0.78000,0.01600
,,,-0.00040563999,0.78000,0.00800
,,,-0.00040560000,0.78000,0.00800
,,,-0.00040555999,0.78000,0.01600
,,,-0.00040552000,0.78000,0.01600
,,,-0.00040548001,0.78000,0.00800
,,,-0.00040543999,0.78000,0.01600
,,,-0.00040540000,0.76000,0.01600
,,,-0.00040535998,0.78000,0.01600
,,,-0.00040532000,0.78000,0.01600
,,,-0.00040528001,0.76000,0.01600
,,,-0.00040523999,0.76000,0.01600
,,,-0.00040520000,0.76000,0.00800
,,,-0.00040516001,0.76000,0.00800
,,,-0.00040511999,0.76000,0.01600
,,,-0.00040508001,0.76000,0.01600
,,,-0.00040503999,0.76000,0.01600
,,,-0.00040500000,0.76000,0.01600
,,,-0.00040496001,0.76000,0.01600
,,,-0.00040491999,0.74000,0.01600
,,,-0.00040488000,0.76000,0.01600
,,,-0.00040483999,0.76000,0.01600
,,,-0.00040480000,0.74000,0.01600
,,,-0.00040476001,0.74000,0.01600
,,,-0.00040471999,0.74000,0.01600
,,,-0.00040468000,0.74000,0.01600
,,,-0.00040463998,0.74000,0.01600
,,,-0.00040460000,0.74000,0.01600
,,,-0.00040456001,0.74000,0.01600
,,,-0.00040451999,0.74000,0.01600
,,,-0.00040448000,0.72000,0.01600
,,,-0.00040444001,0.74000,0.01600
,,,-0.00040439999,0.74000,0.01600
,,,-0.00040436001,0.72000,0.01600
,,,-0.00040431999,0.72000,0.01600
,,,-0.00040428000,0.72000,0.01600
,,,-0.00040424001,0.72000,0.01600
,,,-0.00040419999,0.72000,0.01600
,,,-0.00040416000,0.72000,0.01600
,,,-0.00040411999,0.72000,0.01600
,,,-0.00040408000,0.72000,0.01600
,,,-0.00040404001,0.72000,0.01600
,,,-0.00040399999,0.70000,0.01600
,,,-0.00040396000,0.70000,0.01600
,,,-0.00040391998,0.70000,0.01600
,,,-0.00040388000,0.70000,0.01600
,,,-0.00040384001,0.70000,0.01600
,,,-0.00040379999,0.70000,0.01600
,,,-0.00040376000,0.70000,0.01600
,,,-0.00040371998,0.70000,0.01600
,,,-0.00040367999,0.68000,0.01600
,,,-0.00040364001,0.68000,0.01600
,,,-0.00040359999,0.68000,0.01600
,,,-0.00040356000,0.68000,0.01600
,,,-0.00040352001,0.68000,0.01600
,,,-0.00040347999,0.68000,0.01600
,,,-0.00040344000,0.68000,0.01600
,,,-0.00040339999,0.68000,0.01600
,,,-0.00040336000,0.68000,0.01600
,,,-0.00040332001,0.66000,0.01600
,,,-0.00040327999,0.68000,0.01600
,,,-0.00040324000,0.66000,0.01600
,,,-0.00040319999,0.66000,0.01600
,,,-0.00040316000,0.66000,0.01600
,,,-0.00040312001,0.66000,0.01600
,,,-0.00040307999,0.66000,0.01600
,,,-0.00040304000,0.66000,0.01600
,,,-0.00040299998,0.66000,0.01600
,,,-0.00040295999,0.66000,0.01600
,,,-0.00040292001,0.66000,0.02400
,,,-0.00040287999,0.64000,0.01600
,,,-0.00040284000,0.64000,0.01600
,,,-0.00040280001,0.64000,0.01600
,,,-0.00040275999,0.64000,0.01600
,,,-0.00040272000,0.64000,0.01600
,,,-0.00040267999,0.64000,0.01600
,,,-0.00040264000,0.64000,0.01600
,,,-0.00040260001,0.64000,0.01600
,,,-0.00040255999,0.62000,0.02400
,,,-0.00040252000,0.62000,0.01600
,,,-0.00040247999,0.62000,0.01600
,,,-0.00040244000,0.62000,0.01600
,,,-0.00040240001,0.62000,0.02400
,,,-0.00040235999,0.62000,0.02400
,,,-0.00040232000,0.62000,0.01600
,,,-0.00040227998,0.62000,0.01600
,,,-0.00040224000,0.60000,0.02400
,,,-0.00040220001,0.62000,0.01600
,,,-0.00040215999,0.62000,0.01600
,,,-0.00040212000,0.60000,0.02400
,,,-0.00040208001,0.60000,0.02400
,,,-0.00040203999,0.60000,0.01600
,,,-0.00040200001,0.60000,0.01600
,,,-0.00040195999,0.60000,0.01600
,,,-0.00040192000,0.58000,0.02400
,,,-0.00040188001,0.58000,0.01600
,,,-0.00040183999,0.58000,0.01600
,,,-0.00040180000,0.58000,0.01600
,,,-0.00040175999,0.58000,0.01600
,,,-0.00040172000,0.58000,0.01600
,,,-0.00040168001,0.58000,0.01600
,,,-0.00040163999,0.58000,0.01600
,,,-0.00040160000,0.56000,0.02400
,,,-0.00040155998,0.56000,0.01600
,,,-0.00040152000,0.56000,0.01600
,,,-0.00040148001,0.56000,0.02400
,,,-0.00040143999,0.56000,0.02400
,,,-0.00040140000,0.56000,0.01600
,,,-0.00040136001,0.56000,0.01600
,,,-0.00040131999,0.56000,0.02400
,,,-0.00040128001,0.54000,0.01600
,,,-0.00040123999,0.54000,0.01600
,,,-0.00040120000,0.54000,0.01600
,,,-0.00040116001,0.54000,0.02400
,,,-0.00040111999,0.54000,0.02400
,,,-0.00040108000,0.54000,0.02400
,,,-0.00040103999,0.54000,0.02400
,,,-0.00040100000,0.54000,0.01600
,,,-0.00040096001,0.52000,0.01600
,,,-0.00040091999,0.52000,0.01600
,,,-0.00040088000,0.52000,0.01600
,,,-0.00040083998,0.52000,0.01600
,,,-0.00040080000,0.52000,0.02400
,,,-0.00040076001,0.52000,0.02400
,,,-0.00040071999,0.50000,0.01600
,,,-0.00040068000,0.50000,0.02400
,,,-0.00040063998,0.50000,0.02400
,,,-0.00040059999,0.50000,0.01600
,,,-0.00040056001,0.50000,0.01600
,,,-0.00040051999,0.50000,0.02400
,,,-0.00040048000,0.50000,0.02400
,,,-0.00040044001,0.48000,0.02400
,,,-0.00040039999,0.48000,0.01600
,,,-0.00040036000,0.48000,0.02400
,,,-0.00040031999,0.48000,0.01600
,,,-0.00040028000,0.48000,0.01600
,,,-0.00040024001,0.48000,0.02400
,,,-0.00040019999,0.48000,0.02400
,,,-0.00040016000,0.48000,0.02400
,,,-0.00040011998,0.46000,0.02400
,,,-0.00040008000,0.46000,0.01600
,,,-0.00040004001,0.46000,0.01600
,,,-0.00039999999,0.46000,0.02400
,,,-0.00039996000,0.46000,0.02400
,,,-0.00039991998,0.46000,0.02400
,,,-0.00039987999,0.44000,0.02400
,,,-0.00039984001,0.44000,0.02400
,,,-0.00039979999,0.44000,0.01600
,,,-0.00039976000,0.44000,0.01600
,,,-0.00039972001,0.44000,0.01600
,,,-0.00039967999,0.44000,0.02400
,,,-0.00039964000,0.44000,0.02400
,,,-0.00039959999,0.42000,0.02400
,,,-0.00039956000,0.42000,0.02400
,,,-0.00039952001,0.42000,0.02400
,,,-0.00039947999,0.42000,0.02400
,,,-0.00039944000,0.42000,0.02400
,,,-0.00039939999,0.42000,0.02400
,,,-0.00039936000,0.42000,0.02400
,,,-0.00039932001,0.40000,0.02400
,,,-0.00039927999,0.40000,0.01600
,,,-0.00039924000,0.40000,0.02400
,,,-0.00039919998,0.40000,0.02400
,,,-0.00039916000,0.40000,0.02400
,,,-0.00039912001,0.40000,0.02400
,,,-0.00039907999,0.38000,0.02400
,,,-0.00039904000,0.38000,0.02400
,,,-0.00039900001,0.38000,0.02400
,,,-0.00039895999,0.38000,0.02400
,,,-0.00039892000,0.38000,0.01600
,,,-0.00039887999,0.38000,0.02400
,,,-0.00039884000,0.38000,0.02400
,,,-0.00039880001,0.36000,0.02400
,,,-0.00039875999,0.36000,0.02400
,,,-0.00039872000,0.36000,0.02400
,,,-0.00039867999,0.36000,0.02400
,,,-0.00039864000,0.34000,0.02400
,,,-0.00039860001,0.36000,0.02400
,,,-0.00039855999,0.34000,0.02400
,,,-0.00039852000,0.34000,0.02400
,,,-0.00039847998,0.34000,0.02400
,,,-0.00039844000,0.34000,0.02400
,,,-0.00039840001,0.34000,0.02400
,,,-0.00039835999,0.34000,0.02400
,,,-0.00039832000,0.34000,0.02400
,,,-0.00039828001,0.32000,0.02400
,,,-0.00039823999,0.32000,0.03200
,,,-0.00039820001,0.32000,0.02400
,,,-0.00039815999,0.32000,0.02400
,,,-0.00039812000,0.30000,0.02400
,,,-0.00039808001,0.32000,0.02400
,,,-0.00039803999,0.30000,0.02400
,,,-0.00039800000,0.30000,0.02400
,,,-0.00039795999,0.30000,0.02400
,,,-0.00039792000,0.30000,0.02400
,,,-0.00039788001,0.30000,0.02400
,,,-0.00039783999,0.28000,0.02400
,,,-0.00039780000,0.28000,0.02400
,,,-0.00039775998,0.28000,0.03200
,,,-0.00039772000,0.28000,0.02400
,,,-0.00039768001,0.28000,0.02400
,,,-0.00039763999,0.28000,0.02400
,,,-0.00039760000,0.26000,0.02400
,,,-0.00039756001,0.26000,0.02400
,,,-0.00039751999,0.26000,0.02400
,,,-0.00039748001,0.26000,0.02400
,,,-0.00039743999,0.26000,0.03200
,,,-0.00039740000,0.26000,0.02400
,,,-0.00039736001,0.26000,0.02400
,,,-0.00039731999,0.24000,0.02400
,,,-0.00039728000,0.24000,0.02400
,,,-0.00039723999,0.24000,0.02400
,,,-0.00039720000,0.24000,0.02400
,,,-0.00039716001,0.22000,0.03200
,,,-0.00039711999,0.22000,0.03200
,,,-0.00039708000,0.22000,0.03200
,,,-0.00039703998,0.22000,0.02400
,,,-0.00039700000,0.22000,0.02400
,,,-0.00039696001,0.22000,0.02400
,,,-0.00039691999,0.20000,0.02400
,,,-0.00039688000,0.20000,0.02400
,,,-0.00039683998,0.20000,0.03200
,,,-0.00039679999,0.20000,0.03200
,,,-0.00039676001,0.20000,0.02400
,,,-0.00039671999,0.20000,0.02400
,,,-0.00039668000,0.20000,0.02400
,,,-0.00039664001,0.18000,0.02400
,,,-0.00039659999,0.18000,0.02400
,,,-0.00039656000,0.18000,0.02400
,,,-0.00039651999,0.18000,0.03200
,,,-0.00039648000,0.18000,0.02400
,,,-0.00039644001,0.18000,0.02400
,,,-0.00039639999,0.16000,0.02400
,,,-0.00039636000,0.16000,0.02400
,,,-0.00039631999,0.16000,0.03200
,,,-0.00039628000,0.16000,0.02400
,,,-0.00039624001,0.16000,0.02400
,,,-0.00039619999,0.16000,0.03200
,,,-0.00039616000,0.16000,0.02400
,,,-0.00039611998,0.14000,0.02400
,,,-0.00039607999,0.14000,0.02400
,,,-0.00039604001,0.14000,0.02400
,,,-0.00039599999,0.14000,0.02400
,,,-0.00039596000,0.12000,0.03200
,,,-0.00039592001,0.12000,0.03200
,,,-0.00039587999,0.12000,0.03200
,,,-0.00039584000,0.12000,0.03200
,,,-0.00039579999,0.12000,0.02400
,,,-0.00039576000,0.10000,0.02400
,,,-0.00039572001,0.10000,0.03200
,,,-0.00039567999,0.10000,0.03200
,,,-0.00039564000,0.10000,0.02400
,,,-0.00039559999,0.10000,0.02400
,,,-0.00039556000,0.10000,0.03200
,,,-0.00039552001,0.10000,0.03200
,,,-0.00039547999,0.08000,0.02400
,,,-0.00039544000,0.08000,0.03200
,,,-0.00039539998,0.08000,0.03200
,,,-0.00039536000,0.08000,0.03200
,,,-0.00039532001,0.08000,0.02400
,,,-0.00039527999,0.06000,0.03200
,,,-0.00039524000,0.06000,0.02400
,,,-0.00039520001,0.06000,0.02400
,,,-0.00039515999,0.06000,0.02400
,,,-0.00039512001,0.06000,0.02400
,,,-0.00039507999,0.06000,0.03200
,,,-0.00039504000,0.04000,0.03200
,,,-0.00039500001,0.04000,0.02400
,,,-0.00039495999,0.04000,0.02400
,,,-0.00039492000,0.02000,0.02400
,,,-0.00039487999,0.02000,0.02400
,,,-0.00039484000,0.02000,0.02400
,,,-0.00039480001,0.02000,0.02400
,,,-0.00039475999,0.02000,0.03200
,,,-0.00039472000,0.02000,0.03200
,,,-0.00039467998,0.00,0.02400
,,,-0.00039464000,0.02000,0.03200
,,,-0.00039460001,0.00,0.02400
,,,-0.00039455999,0.00,0.03200
,,,-0.00039452000,0.00,0.02400
,,,-0.00039448001,0.00,0.02400
,,,-0.00039443999,-0.02000,0.02400
,,,-0.00039440001,-0.02000,0.02400
,,,-0.00039435999,-0.02000,0.02400
,,,-0.00039432000,-0.02000,0.02400
,,,-0.00039428001,-0.02000,0.03200
,,,-0.00039423999,-0.04000,0.02400
,,,-0.00039420000,-0.02000,0.02400
,,,-0.00039415999,-0.04000,0.03200
,,,-0.00039412000,-0.04000,0.02400
,,,-0.00039408001,-0.04000,0.02400
,,,-0.00039403999,-0.04000,0.02400
,,,-0.00039400000,-0.06000,0.02400
,,,-0.00039395998,-0.06000,0.03200
,,,-0.00039392000,-0.06000,0.03200
,,,-0.00039388001,-0.06000,0.02400
,,,-0.00039383999,-0.06000,0.02400
,,,-0.00039380000,-0.06000,0.02400
,,,-0.00039375998,-0.08000,0.03200
,,,-0.00039371999,-0.08000,0.03200
,,,-0.00039368001,-0.08000,0.02400
,,,-0.00039363999,-0.08000,0.03200
,,,-0.00039360000,-0.10000,0.03200
,,,-0.00039356001,-0.10000,0.02400
,,,-0.00039351999,-0.10000,0.03200
,,,-0.00039348000,-0.10000,0.03200
,,,-0.00039343999,-0.10000,0.03200
,,,-0.00039340000,-0.10000,0.03200
,,,-0.00039336001,-0.12000,0.03200
,,,-0.00039331999,-0.12000,0.02400
,,,-0.00039328000,-0.12000,0.02400
,,,-0.00039323998,-0.12000,0.02400
,,,-0.00039320000,-0.12000,0.03200
,,,-0.00039316001,-0.14000,0.03200
,,,-0.00039311999,-0.12000,0.03200
,,,-0.00039308000,-0.14000,0.02400
,,,-0.00039303998,-0.14000,0.03200
,,,-0.00039299999,-0.14000,0.02400
,,,-0.00039296001,-0.14000,0.02400
,,,-0.00039291999,-0.16000,0.02400
,,,-0.00039288000,-0.16000,0.02400
,,,-0.00039284001,-0.16000,0.03200
,,,-0.00039279999,-0.16000,0.03200
,,,-0.00039276000,-0.18000,0.02400
,,,-0.00039271999,-0.18000,0.02400
,,,-0.00039268000,-0.18000,0.02400
,,,-0.00039264001,-0.18000,0.02400
,,,-0.00039259999,-0.18000,0.02400
,,,-0.00039256000,-0.18000,0.03200
,,,-0.00039251999,-0.18000,0.03200
,,,-0.00039248000,-0.20000,0.02400
,,,-0.00039244001,-0.20000,0.02400
,,,-0.00039239999,-0.20000,0.02400
,,,-0.00039236000,-0.20000,0.03200
,,,-0.00039231998,-0.22000,0.02400
,,,-0.00039228000,-0.22000,0.03200
,,,-0.00039224001,-0.22000,0.03200
,,,-0.00039219999,-0.22000,0.02400
,,,-0.00039216000,-0.22000,0.02400
,,,-0.00039212001,-0.22000,0.02400
,,,-0.00039207999,-0.24000,0.02400
,,,-0.00039204000,-0.24000,0.02400
,,,-0.00039199999,-0.24000,0.02400
,,,-0.00039196000,-0.24000,0.02400
,,,-0.00039192001,-0.24000,0.02400
,,,-0.00039187999,-0.26000,0.02400
,,,-0.00039184000,-0.26000,0.02400
,,,-0.00039179999,-0.26000,0.02400
,,,-0.00039176000,-0.26000,0.02400
,,,-0.00039172001,-0.26000,0.03200
,,,-0.00039167999,-0.28000,0.03200
,,,-0.00039164000,-0.28000,0.02400
,,,-0.00039159998,-0.28000,0.02400
,,,-0.00039156000,-0.28000,0.02400
,,,-0.00039152001,-0.28000,0.02400
,,,-0.00039147999,-0.30000,0.02400
,,,-0.00039144000,-0.30000,0.02400
,,,-0.00039140001,-0.30000,0.02400
,,,-0.00039135999,-0.30000,0.02400
,,,-0.00039132001,-0.30000,0.02400
,,,-0.00039127999,-0.32000,0.02400
,,,-0.00039124000,-0.32000,0.02400
,,,-0.00039120001,-0.32000,0.02400
,,,-0.00039115999,-0.32000,0.02400
,,,-0.00039112000,-0.32000,0.03200
,,,-0.00039107999,-0.34000,0.02400
,,,-0.00039104000,-0.34000,0.02400
,,,-0.00039100001,-0.34000,0.02400
,,,-0.00039095999,-0.34000,0.02400
,,,-0.00039092000,-0.34000,0.02400
,,,-0.00039087998,-0.36000,0.02400
,,,-0.00039084000,-0.36000,0.02400
,,,-0.00039080001,-0.36000,0.03200
,,,-0.00039075999,-0.36000,0.03200
,,,-0.00039072000,-0.36000,0.02400
,,,-0.00039068001,-0.38000,0.02400
,,,-0.00039063999,-0.38000,0.02400
,,,-0.00039060001,-0.38000,0.02400
,,,-0.00039055999,-0.38000,0.03200
,,,-0.00039052000,-0.38000,0.02400
,,,-0.00039048001,-0.40000,0.02400
,,,-0.00039043999,-0.40000,0.03200
,,,-0.00039040000,-0.40000,0.02400
,,,-0.00039035999,-0.40000,0.02400
,,,-0.00039032000,-0.40000,0.03200
,,,-0.00039028001,-0.40000,0.02400
,,,-0.00039023999,-0.42000,0.02400
,,,-0.00039020000,-0.42000,0.02400
,,,-0.00039015998,-0.42000,0.02400
,,,-0.00039012000,-0.42000,0.02400
,,,-0.00039008001,-0.44000,0.02400
,,,-0.00039003999,-0.44000,0.02400
,,,-0.00039000000,-0.44000,0.03200
,,,-0.00038995998,-0.44000,0.03200
,,,-0.00038991999,-0.44000,0.02400
,,,-0.00038988001,-0.46000,0.02400
,,,-0.00038983999,-0.46000,0.02400
,,,-0.00038980000,-0.46000,0.03200
,,,-0.00038976001,-0.46000,0.02400
,,,-0.00038971999,-0.46000,0.02400
,,,-0.00038968000,-0.48000,0.02400
,,,-0.00038963999,-0.48000,0.02400
,,,-0.00038960000,-0.48000,0.02400
,,,-0.00038956001,-0.48000,0.02400
,,,-0.00038951999,-0.48000,0.02400
,,,-0.00038948000,-0.50000,0.02400
,,,-0.00038943999,-0.50000,0.02400
,,,-0.00038940000,-0.50000,0.02400
,,,-0.00038936001,-0.50000,0.02400
,,,-0.00038931999,-0.50000,0.02400
,,,-0.00038928000,-0.50000,0.02400
,,,-0.00038923998,-0.52000,0.02400
,,,-0.00038919999,-0.52000,0.02400
,,,-0.00038916001,-0.52000,0.02400
,,,-0.00038911999,-0.52000,0.02400
,,,-0.00038908000,-0.54000,0.02400
,,,-0.00038904001,-0.54000,0.02400
,,,-0.00038899999,-0.54000,0.02400
,,,-0.00038896000,-0.54000,0.02400
,,,-0.00038891999,-0.54000,0.02400
,,,-0.00038888000,-0.54000,0.02400
,,,-0.00038884001,-0.56000,0.02400
,,,-0.00038879999,-0.56000,0.02400
,,,-0.00038876000,-0.56000,0.02400
,,,-0.00038871999,-0.58000,0.02400
,,,-0.00038868000,-0.58000,0.02400
,,,-0.00038864001,-0.58000,0.02400
,,,-0.00038859999,-0.58000,0.02400
,,,-0.00038856000,-0.58000,0.02400
,,,-0.00038851998,-0.58000,0.02400
,,,-0.00038848000,-0.58000,0.02400
,,,-0.00038844001,-0.60000,0.02400
,,,-0.00038839999,-0.60000,0.02400
,,,-0.00038836000,-0.60000,0.02400
,,,-0.00038832001,-0.60000,0.02400
,,,-0.00038827999,-0.60000,0.02400
,,,-0.00038824001,-0.60000,0.02400
,,,-0.00038819999,-0.62000,0.02400
,,,-0.00038816000,-0.62000,0.02400
,,,-0.00038812001,-0.62000,0.02400
,,,-0.00038807999,-0.62000,0.02400
,,,-0.00038804000,-0.64000,0.02400
,,,-0.00038799999,-0.64000,0.02400
,,,-0.00038796000,-0.64000,0.02400
,,,-0.00038792001,-0.64000,0.02400
,,,-0.00038787999,-0.64000,0.02400
,,,-0.00038784000,-0.66000,0.02400
,,,-0.00038779998,-0.66000,0.02400
,,,-0.00038776000,-0.66000,0.02400
,,,-0.00038772001,-0.66000,0.02400
,,,-0.00038767999,-0.66000,0.02400
,,,-0.00038764000,-0.66000,0.02400
,,,-0.00038760001,-0.66000,0.02400
,,,-0.00038755999,-0.68000,0.02400
,,,-0.00038752001,-0.68000,0.02400
,,,-0.00038747999,-0.68000,0.02400
,,,-0.00038744000,-0.68000,0.02400
,,,-0.00038740001,-0.68000,0.02400
,,,-0.00038735999,-0.68000,0.01600
,,,-0.00038732000,-0.70000,0.02400
,,,-0.00038727999,-0.70000,0.02400
,,,-0.00038724000,-0.70000,0.02400
,,,-0.00038720001,-0.70000,0.02400
,,,-0.00038715999,-0.72000,0.02400
,,,-0.00038712000,-0.72000,0.02400
,,,-0.00038707998,-0.72000,0.01600
,,,-0.00038704000,-0.72000,0.02400
,,,-0.00038700001,-0.72000,0.01600
,,,-0.00038695999,-0.72000,0.01600
,,,-0.00038692000,-0.74000,0.02400
,,,-0.00038687998,-0.74000,0.02400
,,,-0.00038683999,-0.74000,0.02400
,,,-0.00038680001,-0.74000,0.01600
,,,-0.00038675999,-0.74000,0.02400
,,,-0.00038672000,-0.74000,0.01600
,,,-0.00038668001,-0.76000,0.01600
,,,-0.00038663999,-0.76000,0.02400
,,,-0.00038660000,-0.76000,0.01600
