datosdia1/SDS00007.CSV

Record Length,20480,,Source,CH1,CH2
Sample Interval,CH1:0.0000000100000 CH2:0.0000000100000,,Second,Volt,Volt
Vertical Units,CH1:V CH2:V,,-0.00010240000,0.48000,0.60000
Vertical Scale,CH1:2.00 CH2:1.00,,-0.00010239000,0.48000,0.60000
Vertical Offset,CH1:0.00 CH2:0.00,,-0.00010238000,0.48000,0.56000
Horizontal Units,s,,-0.00010237000,0.48000,0.60000
Horizontal Scale,0.0000100000,,-0.00010236000,0.48000,0.60000
Model Number,SDS1102CML+,,-0.00010235000,0.48000,0.60000
Serial Number,SDS1MHEX5R4100,,-0.00010234000,0.48000,0.60000
Software Version,6.01.01.21R2,,-0.00010233000,0.48000,0.60000
,,,-0.00010232000,0.48000,0.60000
,,,-0.00010231000,0.48000,0.60000
,,,-0.00010230000,0.48000,0.64000
,,,-0.00010229000,0.48000,0.60000
,,,-0.00010228000,0.48000,0.60000
,,,-0.00010227000,0.48000,0.60000
,,,-0.00010226000,0.48000,0.60000
,,,-0.00010225000,0.48000,0.60000
,,,-0.00010224000,0.48000,0.60000
,,,-0.00010223000,0.48000,0.64000
,,,-0.00010222000,0.48000,0.64000
,,,-0.00010221000,0.48000,0.60000
,,,-0.00010220000,0.40000,0.60000
,,,-0.00010219000,0.48000,0.64000
,,,-0.00010218000,0.48000,0.60000
,,,-0.00010217000,0.40000,0.60000
,,,-0.00010216000,0.48000,0.60000
,,,-0.00010215000,0.48000,0.60000
,,,-0.00010214000,0.48000,0.60000
,,,-0.00010213000,0.40000,0.64000
,,,-0.00010212000,0.48000,0.60000
,,,-0.00010211000,0.48000,0.64000
,,,-0.00010210000,0.48000,0.60000
,,,-0.00010209000,0.48000,0.60000
,,,-0.00010208000,0.48000,0.60000
,,,-0.00010207000,0.48000,0.60000
,,,-0.00010206000,0.48000,0.60000
,,,-0.00010205000,0.48000,0.64000
,,,-0.00010204000,0.48000,0.64000
,,,-0.00010203000,0.40000,0.64000
,,,-0.00010202000,0.48000,0.60000
,,,-0.00010201000,0.48000,0.64000
,,,-0.00010200000,0.48000,0.60000
,,,-0.00010199000,0.48000,0.64000
,,,-0.00010198000,0.40000,0.64000
,,,-0.00010197000,0.48000,0.64000
,,,-0.00010196000,0.48000,0.60000
,,,-0.00010195000,0.48000,0.60000
,,,-0.00010194000,0.48000,0.64000
,,,-0.00010193000,0.48000,0.64000
,,,-0.00010192000,0.48000,0.64000
,,,-0.00010191000,0.48000,0.60000
,,,-0.00010190000,0.40000,0.60000
,,,-0.00010189000,0.48000,0.64000
,,,-0.00010188000,0.48000,0.64000
,,,-0.00010187000,0.40000,0.64000
,,,-0.00010186000,0.48000,0.64000
,,,-0.00010185000,0.40000,0.64000
,,,-0.00010184000,0.40000,0.64000
,,,-0.00010183000,0.40000,0.64000
,,,-0.00010182000,0.48000,0.60000
,,,-0.00010181000,0.40000,0.64000
,,,-0.00010180000,0.48000,0.64000
,,,-0.00010179000,0.48000,0.64000
,,,-0.00010178000,0.48000,0.64000
,,,-0.00010177000,0.48000,0.64000
,,,-0.00010176000,0.48000,0.64000
,,,-0.00010175000,0.40000,0.64000
,,,-0.00010174000,0.40000,0.64000
,,,-0.00010173000,0.40000,0.64000
,,,-0.00010172000,0.40000,0.64000
,,,-0.00010171000,0.40000,0.60000
,,,-0.00010170000,0.40000,0.64000
,,,-0.00010169000,0.48000,0.64000
,,,-0.00010168000,0.48000,0.64000
,,,-0.00010167000,0.48000,0.64000
,,,-0.00010166000,0.40000,0.64000
,,,-0.00010165000,0.48000,0.64000
,,,-0.00010164000,0.40000,0.68000
,,,-0.00010163000,0.40000,0.64000
,,,-0.00010162000,0.48000,0.64000
,,,-0.00010161000,0.40000,0.64000
,,,-0.00010160000,0.48000,0.64000
,,,-0.00010159000,0.48000,0.64000
,,,-0.00010158000,0.48000,0.64000
,,,-0.00010157000,0.40000,0.64000
,,,-0.00010156000,0.48000,0.64000
,,,-0.00010155000,0.40000,0.64000
,,,-0.00010154000,0.40000,0.64000
,,,-0.00010153000,0.40000,0.64000
,,,-0.00010152000,0.40000,0.64000
,,,-0.00010151000,0.40000,0.64000
,,,-0.00010150000,0.40000,0.64000
,,,-0.00010149000,0.40000,0.64000
,,,-0.00010148000,0.40000,0.64000
,,,-0.00010147000,0.48000,0.64000
,,,-0.00010146000,0.40000,0.64000
,,,-0.00010145000,0.40000,0.64000
,,,-0.00010144000,0.40000,0.64000
,,,-0.00010143000,0.48000,0.64000
,,,-0.00010142000,0.40000,0.64000
,,,-0.00010141000,0.40000,0.64000
,,,-0.00010140000,0.40000,0.64000
,,,-0.00010139000,0.40000,0.68000
,,,-0.00010138000,0.40000,0.64000
,,,-0.00010137000,0.40000,0.68000
,,,-0.00010136000,0.40000,0.68000
,,,-0.00010135000,0.40000,0.64000
,,,-0.00010134000,0.48000,0.64000
,,,-0.00010133000,0.40000,0.64000
,,,-0.00010132000,0.40000,0.64000
,,,-0.00010131000,0.40000,0.68000
,,,-0.00010130000,0.40000,0.64000
,,,-0.00010129000,0.40000,0.64000
,,,-0.00010128000,0.40000,0.68000
,,,-0.00010127000,0.40000,0.68000
,,,-0.00010126000,0.40000,0.68000
,,,-0.00010125000,0.40000,0.64000
,,,-0.00010124000,0.40000,0.64000
,,,-0.00010123000,0.40000,0.64000
,,,-0.00010122000,0.40000,0.64000
,,,-0.00010121000,0.40000,0.64000
,,,-0.00010120000,0.40000,0.64000
,,,-0.00010119000,0.40000,0.64000
,,,-0.00010118000,0.40000,0.68000
,,,-0.00010117000,0.40000,0.64000
,,,-0.00010116000,0.40000,0.68000
,,,-0.00010115000,0.40000,0.64000
,,,-0.00010114000,0.40000,0.68000
,,,-0.00010113000,0.48000,0.64000
,,,-0.00010112000,0.40000,0.64000
,,,-0.00010111000,0.40000,0.64000
,,,-0.00010110000,0.40000,0.68000
,,,-0.00010109000,0.40000,0.64000
,,,-0.00010108000,0.40000,0.68000
,,,-0.00010107000,0.40000,0.64000
,,,-0.00010106000,0.40000,0.68000
,,,-0.00010105000,0.40000,0.64000
,,,-0.00010104000,0.40000,0.68000
,,,-0.00010103000,0.40000,0.68000
,,,-0.00010102000,0.40000,0.68000
,,,-0.00010101000,0.40000,0.64000
,,,-0.00010100000,0.40000,0.72000
,,,-0.00010099000,0.40000,0.64000
,,,-0.00010098000,0.40000,0.68000
,,,-0.00010097000,0.40000,0.68000
,,,-0.00010096000,0.40000,0.68000
,,,-0.00010095000,0.40000,0.68000
,,,-0.00010094000,0.40000,0.68000
,,,-0.00010093000,0.40000,0.68000
,,,-0.00010092000,0.40000,0.68000
,,,-0.00010091000,0.40000,0.64000
,,,-0.00010090000,0.40000,0.72000
,,,-0.00010089000,0.40000,0.68000
,,,-0.00010088000,0.40000,0.68000
,,,-0.00010087000,0.40000,0.72000
,,,-0.00010086000,0.40000,0.68000
,,,-0.00010085000,0.40000,0.68000
,,,-0.00010084000,0.40000,0.68000
,,,-0.00010083000,0.40000,0.72000
,,,-0.00010082000,0.40000,0.68000
,,,-0.00010081000,0.40000,0.72000
,,,-0.00010080000,0.40000,0.68000
,,,-0.00010079000,0.40000,0.64000
,,,-0.00010078000,0.40000,0.68000
,,,-0.00010077000,0.40000,0.68000
,,,-0.00010076000,0.40000,0.68000
,,,-0.00010075000,0.40000,0.72000
,,,-0.00010074000,0.40000,0.68000
,,,-0.00010073000,0.40000,0.68000
,,,-0.00010072000,0.40000,0.72000
,,,-0.00010071000,0.32000,0.68000
,,,-0.00010070000,0.40000,0.68000
,,,-0.00010069000,0.40000,0.68000
,,,-0.00010068000,0.40000,0.68000
,,,-0.00010067000,0.40000,0.68000
,,,-0.00010066000,0.40000,0.64000
,,,-0.00010065000,0.40000,0.72000
,,,-0.00010064000,0.32000,0.68000
,,,-0.00010063000,0.40000,0.68000
,,,-0.00010062000,0.40000,0.72000
,,,-0.00010061000,0.40000,0.68000
,,,-0.00010060000,0.32000,0.72000
,,,-0.00010059000,0.40000,0.72000
,,,-0.00010058000,0.40000,0.72000
,,,-0.00010057000,0.40000,0.72000
,,,-0.00010056000,0.40000,0.68000
,,,-0.00010055000,0.40000,0.72000
,,,-0.00010054000,0.40000,0.68000
,,,-0.00010053000,0.40000,0.68000
,,,-0.00010052000,0.32000,0.68000
,,,-0.00010051000,0.40000,0.68000
,,,-0.00010050000,0.32000,0.68000
,,,-0.00010049000,0.40000,0.72000
,,,-0.00010048000,0.40000,0.72000
,,,-0.00010047000,0.32000,0.72000
,,,-0.00010046000,0.40000,0.68000
,,,-0.00010045000,0.40000,0.72000
,,,-0.00010044000,0.40000,0.68000
,,,-0.00010043000,0.32000,0.72000
,,,-0.00010042000,0.40000,0.72000
,,,-0.00010041000,0.40000,0.72000
,,,-0.00010040000,0.32000,0.68000
,,,-0.00010039000,0.40000,0.72000
,,,-0.00010038000,0.32000,0.72000
,,,-0.00010037000,0.40000,0.72000
,,,-0.00010036000,0.32000,0.68000
,,,-0.00010035000,0.40000,0.72000
,,,-0.00010034000,0.40000,0.72000
,,,-0.00010033000,0.40000,0.72000
,,,-0.00010032000,0.40000,0.72000
,,,-0.00010031000,0.40000,0.72000
,,,-0.00010030000,0.40000,0.72000
,,,-0.00010029000,0.40000,0.72000
,,,-0.00010028000,0.32000,0.72000
,,,-0.00010027000,0.32000,0.72000
,,,-0.00010026000,0.32000,0.72000
,,,-0.00010025000,0.32000,0.72000
,,,-0.00010024000,0.32000,0.76000
,,,-0.00010023000,0.32000,0.72000
,,,-0.00010022000,0.40000,0.72000
,,,-0.00010021000,0.32000,0.72000
,,,-0.00010020000,0.32000,0.72000
,,,-0.00010019000,0.40000,0.72000
,,,-0.00010018000,0.32000,0.72000
,,,-0.00010017000,0.32000,0.72000
,,,-0.00010016000,0.32000,0.72000
,,,-0.00010015000,0.32000,0.72000
,,,-0.00010014000,0.32000,0.72000
,,,-0.00010013000,0.32000,0.72000
,,,-0.00010012000,0.32000,0.72000
,,,-0.00010011000,0.32000,0.72000
,,,-0.00010010000,0.40000,0.72000
,,,-0.00010009000,0.32000,0.76000
,,,-0.00010008000,0.32000,0.72000
,,,-0.00010007000,0.32000,0.72000
,,,-0.00010006000,0.32000,0.72000
,,,-0.00010005000,0.32000,0.72000
,,,-0.00010004000,0.40000,0.72000
,,,-0.00010003000,0.32000,0.72000
,,,-0.00010002000,0.32000,0.72000
,,,-0.00010001000,0.32000,0.72000
,,,-0.00010000000,0.32000,0.72000
,,,-0.00009999000,0.32000,0.72000
,,,-0.00009998000,0.32000,0.72000
,,,-0.00009997000,0.32000,0.76000
,,,-0.00009996000,0.32000,0.72000
,,,-0.00009995000,0.40000,0.76000
,,,-0.00009994000,0.32000,0.72000
,,,-0.00009993000,0.24000,0.72000
,,,-0.00009992000,0.32000,0.76000
,,,-0.00009991000,0.32000,0.72000
,,,-0.00009990000,0.32000,0.72000
,,,-0.00009989000,0.32000,0.72000
,,,-0.00009988000,0.32000,0.72000
,,,-0.00009987000,0.32000,0.72000
,,,-0.00009986000,0.32000,0.72000
,,,-0.00009985000,0.32000,0.76000
,,,-0.00009984000,0.32000,0.76000
,,,-0.00009983000,0.32000,0.72000
,,,-0.00009982000,0.32000,0.72000
,,,-0.00009981000,0.32000,0.76000
,,,-0.00009980000,0.32000,0.76000
,,,-0.00009979000,0.32000,0.72000
,,,-0.00009978000,0.32000,0.72000
,,,-0.00009977000,0.32000,0.76000
,,,-0.00009976000,0.32000,0.76000
,,,-0.00009975000,0.32000,0.76000
,,,-0.00009974000,0.32000,0.76000
,,,-0.00009973000,0.32000,0.72000
,,,-0.00009972000,0.32000,0.72000
,,,-0.00009971000,0.32000,0.72000
,,,-0.00009970000,0.32000,0.76000
,,,-0.00009969000,0.32000,0.76000
,,,-0.00009968000,0.32000,0.76000
,,,-0.00009967000,0.32000,0.76000
,,,-0.00009966000,0.32000,0.72000
,,,-0.00009965000,0.32000,0.76000
,,,-0.00009964000,0.32000,0.76000
,,,-0.00009963000,0.32000,0.72000
,,,-0.00009962000,0.32000,0.76000
,,,-0.00009961000,0.32000,0.76000
,,,-0.00009960000,0.24000,0.76000
,,,-0.00009959000,0.32000,0.76000
,,,-0.00009958000,0.32000,0.76000
,,,-0.00009957000,0.24000,0.76000
,,,-0.00009956000,0.32000,0.76000
,,,-0.00009955000,0.32000,0.76000
,,,-0.00009954000,0.32000,0.72000
,,,-0.00009953000,0.24000,0.76000
,,,-0.00009952000,0.32000,0.72000
,,,-0.00009951000,0.24000,0.76000
,,,-0.00009950000,0.32000,0.76000
,,,-0.00009949000,0.32000,0.76000
,,,-0.00009948000,0.32000,0.72000
,,,-0.00009947000,0.32000,0.76000
,,,-0.00009946000,0.32000,0.76000
,,,-0.00009945000,0.32000,0.76000
,,,-0.00009944000,0.24000,0.72000
,,,-0.00009943000,0.32000,0.76000
,,,-0.00009942000,0.32000,0.76000
,,,-0.00009941000,0.32000,0.76000
,,,-0.00009940000,0.32000,0.76000
,,,-0.00009939000,0.32000,0.76000
,,,-0.00009938000,0.24000,0.76000
,,,-0.00009937000,0.24000,0.76000
,,,-0.00009936000,0.32000,0.76000
,,,-0.00009935000,0.24000,0.72000
,,,-0.00009934000,0.32000,0.76000
,,,-0.00009933000,0.24000,0.76000
,,,-0.00009932000,0.32000,0.76000
,,,-0.00009931000,0.32000,0.76000
,,,-0.00009930000,0.24000,0.72000
,,,-0.00009929000,0.32000,0.76000
,,,-0.00009928000,0.24000,0.76000
,,,-0.00009927000,0.32000,0.76000
,,,-0.00009926000,0.32000,0.76000
,,,-0.00009925000,0.24000,0.76000
,,,-0.00009924000,0.24000,0.72000
,,,-0.00009923000,0.32000,0.76000
,,,-0.00009922000,0.24000,0.76000
,,,-0.00009921000,0.32000,0.76000
,,,-0.00009920000,0.24000,0.80000
,,,-0.00009919000,0.32000,0.80000
,,,-0.00009918000,0.24000,0.76000
,,,-0.00009917000,0.24000,0.76000
,,,-0.00009916000,0.24000,0.76000
,,,-0.00009915000,0.24000,0.76000
,,,-0.00009914000,0.24000,0.80000
,,,-0.00009913000,0.32000,0.76000
,,,-0.00009912000,0.24000,0.80000
,,,-0.00009911000,0.24000,0.76000
,,,-0.00009910000,0.24000,0.76000
,,,-0.00009909000,0.32000,0.76000
,,,-0.00009908000,0.32000,0.76000
,,,-0.00009907000,0.32000,0.76000
,,,-0.00009906000,0.24000,0.76000
,,,-0.00009905000,0.24000,0.76000
,,,-0.00009904000,0.24000,0.76000
,,,-0.00009903000,0.24000,0.76000
,,,-0.00009902000,0.24000,0.76000
,,,-0.00009901000,0.24000,0.76000
,,,-0.00009900000,0.32000,0.76000
,,,-0.00009899000,0.24000,0.76000
,,,-0.00009898000,0.24000,0.76000
,,,-0.00009897000,0.24000,0.76000
,,,-0.00009896000,0.24000,0.76000
,,,-0.00009895000,0.24000,0.76000
,,,-0.00009894000,0.24000,0.80000
,,,-0.00009893000,0.24000,0.76000
,,,-0.00009892000,0.24000,0.80000
,,,-0.00009891000,0.24000,0.76000
,,,-0.00009890000,0.24000,0.76000
,,,-0.00009889000,0.24000,0.80000
,,,-0.00009888000,0.24000,0.76000
,,,-0.00009887000,0.24000,0.76000
,,,-0.00009886000,0.24000,0.76000
,,,-0.00009885000,0.24000,0.80000
,,,-0.00009884000,0.24000,0.80000
,,,-0.00009883000,0.24000,0.80000
,,,-0.00009882000,0.24000,0.76000
,,,-0.00009881000,0.24000,0.76000
,,,-0.00009880000,0.24000,0.76000
,,,-0.00009879000,0.24000,0.80000
,,,-0.00009878000,0.24000,0.80000
,,,-0.00009877000,0.24000,0.80000
,,,-0.00009876000,0.24000,0.76000
,,,-0.00009875000,0.24000,0.76000
,,,-0.00009874000,0.32000,0.76000
,,,-0.00009873000,0.24000,0.80000
,,,-0.00009872000,0.24000,0.76000
,,,-0.00009871000,0.24000,0.80000
,,,-0.00009870000,0.24000,0.80000
,,,-0.00009869000,0.24000,0.76000
,,,-0.00009868000,0.24000,0.76000
,,,-0.00009867000,0.24000,0.76000
,,,-0.00009866000,0.24000,0.76000
,,,-0.00009865000,0.24000,0.80000
,,,-0.00009864000,0.24000,0.76000
,,,-0.00009863000,0.24000,0.80000
,,,-0.00009862000,0.24000,0.76000
,,,-0.00009861000,0.24000,0.76000
,,,-0.00009860000,0.24000,0.80000
,,,-0.00009859000,0.24000,0.80000
,,,-0.00009858000,0.24000,0.80000
,,,-0.00009857000,0.24000,0.76000
,,,-0.00009856000,0.24000,0.80000
,,,-0.00009855000,0.24000,0.80000
,,,-0.00009854000,0.24000,0.80000
,,,-0.00009853000,0.24000,0.80000
,,,-0.00009852000,0.24000,0.80000
,,,-0.00009851000,0.24000,0.80000
,,,-0.00009850000,0.24000,0.80000
,,,-0.00009849000,0.24000,0.80000
,,,-0.00009848000,0.24000,0.80000
,,,-0.00009847000,0.24000,0.80000
,,,-0.00009846000,0.24000,0.80000
,,,-0.00009845000,0.24000,0.80000
,,,-0.00009844000,0.24000,0.80000
,,,-0.00009843000,0.24000,0.80000
,,,-0.00009842000,0.24000,0.80000
,,,-0.00009841000,0.24000,0.76000
,,,-0.00009840000,0.24000,0.80000
,,,-0.00009839000,0.24000,0.80000
,,,-0.00009838000,0.24000,0.80000
,,,-0.00009837000,0.24000,0.76000
,,,-0.00009836000,0.24000,0.80000
,,,-0.00009835000,0.24000,0.80000
,,,-0.00009834000,0.24000,0.80000
,,,-0.00009833000,0.24000,0.80000
,,,-0.00009832000,0.24000,0.80000
,,,-0.00009831000,0.24000,0.76000
,,,-0.00009830000,0.24000,0.80000
,,,-0.00009829000,0.24000,0.80000
,,,-0.00009828000,0.24000,0.80000
,,,-0.00009827000,0.24000,0.80000
,,,-0.00009826000,0.24000,0.80000
,,,-0.00009825000,0.24000,0.80000
,,,-0.00009824000,0.24000,0.80000
,,,-0.00009823000,0.24000,0.80000
,,,-0.00009822000,0.24000,0.80000
,,,-0.00009821000,0.24000,0.80000
,,,-0.00009820000,0.24000,0.80000
,,,-0.00009819000,0.16000,0.80000
,,,-0.00009818000,0.24000,0.80000
,,,-0.00009817000,0.24000,0.80000
,,,-0.00009816000,0.16000,0.80000
,,,-0.00009815000,0.24000,0.80000
,,,-0.00009814000,0.16000,0.80000
,,,-0.00009813000,0.24000,0.80000
,,,-0.00009812000,0.24000,0.80000
,,,-0.00009811000,0.24000,0.80000
,,,-0.00009810000,0.24000,0.80000
,,,-0.00009809000,0.24000,0.84000
,,,-0.00009808000,0.24000,0.80000
,,,-0.00009807000,0.24000,0.80000
,,,-0.00009806000,0.24000,0.80000
,,,-0.00009805000,0.24000,0.80000
,,,-0.00009804000,0.24000,0.80000
,,,-0.00009803000,0.16000,0.80000
,,,-0.00009802000,0.16000,0.80000
,,,-0.00009801000,0.24000,0.80000
,,,-0.00009800000,0.24000,0.80000
,,,-0.00009799000,0.16000,0.80000
,,,-0.00009798000,0.24000,0.80000
,,,-0.00009797000,0.24000,0.80000
,,,-0.00009796000,0.24000,0.80000
,,,-0.00009795000,0.24000,0.80000
,,,-0.00009794000,0.16000,0.80000
,,,-0.00009793000,0.16000,0.80000
,,,-0.00009792000,0.16000,0.80000
,,,-0.00009791000,0.08000,0.80000
,,,-0.00009790000,0.16000,0.80000
,,,-0.00009789000,0.24000,0.80000
,,,-0.00009788000,0.24000,0.80000
,,,-0.00009787000,0.16000,0.80000
,,,-0.00009786000,0.16000,0.80000
,,,-0.00009785000,0.16000,0.80000
,,,-0.00009784000,0.16000,0.80000
,,,-0.00009783000,0.24000,0.80000
,,,-0.00009782000,0.24000,0.80000
,,,-0.00009781000,0.08000,0.80000
,,,-0.00009780000,0.16000,0.80000
,,,-0.00009779000,0.24000,0.84000
,,,-0.00009778000,0.16000,0.80000
,,,-0.00009777000,0.08000,0.80000
,,,-0.00009776000,0.16000,0.80000
,,,-0.00009775000,0.16000,0.80000
,,,-0.00009774000,0.24000,0.80000
,,,-0.00009773000,0.24000,0.80000
,,,-0.00009772000,0.24000,0.80000
,,,-0.00009771000,0.16000,0.80000
,,,-0.00009770000,0.24000,0.84000
,,,-0.00009769000,0.08000,0.80000
,,,-0.00009768000,0.24000,0.80000
,,,-0.00009767000,0.16000,0.80000
,,,-0.00009766000,0.24000,0.80000
,,,-0.00009765000,0.24000,0.80000
,,,-0.00009764000,0.08000,0.80000
,,,-0.00009763000,0.16000,0.80000
,,,-0.00009762000,0.08000,0.84000
,,,-0.00009761000,0.16000,0.80000
,,,-0.00009760000,0.08000,0.80000
,,,-0.00009759000,0.08000,0.80000
,,,-0.00009758000,0.24000,0.80000
,,,-0.00009757000,0.24000,0.80000
,,,-0.00009756000,0.08000,0.80000
,,,-0.00009755000,0.08000,0.84000
,,,-0.00009754000,0.16000,0.80000
,,,-0.00009753000,0.16000,0.80000
,,,-0.00009752000,0.08000,0.80000
,,,-0.00009751000,0.24000,0.80000
,,,-0.00009750000,0.08000,0.80000
,,,-0.00009749000,0.16000,0.80000
,,,-0.00009748000,0.08000,0.84000
,,,-0.00009747000,0.08000,0.80000
,,,-0.00009746000,0.08000,0.80000
,,,-0.00009745000,0.08000,0.80000
,,,-0.00009744000,0.16000,0.84000
,,,-0.00009743000,0.08000,0.80000
,,,-0.00009742000,0.16000,0.80000
,,,-0.00009741000,0.08000,0.80000
,,,-0.00009740000,0.08000,0.84000
,,,-0.00009739000,0.24000,0.84000
,,,-0.00009738000,0.16000,0.80000
,,,-0.00009737000,0.08000,0.84000
,,,-0.00009736000,0.08000,0.80000
,,,-0.00009735000,0.08000,0.80000
,,,-0.00009734000,0.16000,0.84000
,,,-0.00009733000,0.16000,0.84000
,,,-0.00009732000,0.08000,0.84000
,,,-0.00009731000,0.16000,0.80000
,,,-0.00009730000,0.08000,0.84000
,,,-0.00009729000,0.16000,0.80000
,,,-0.00009728000,0.08000,0.80000
,,,-0.00009727000,0.08000,0.80000
,,,-0.00009726000,0.08000,0.84000
,,,-0.00009725000,0.08000,0.80000
,,,-0.00009724000,0.08000,0.80000
,,,-0.00009723000,0.08000,0.84000
,,,-0.00009722000,0.08000,0.84000
,,,-0.00009721000,0.16000,0.80000
,,,-0.00009720000,0.08000,0.84000
,,,-0.00009719000,0.08000,0.80000
,,,-0.00009718000,0.08000,0.84000
,,,-0.00009717000,0.08000,0.84000
,,,-0.00009716000,0.08000,0.84000
,,,-0.00009715000,0.08000,0.80000
,,,-0.00009714000,0.08000,0.84000
,,,-0.00009713000,0.08000,0.84000
,,,-0.00009712000,0.08000,0.84000
,,,-0.00009711000,0.08000,0.84000
,,,-0.00009710000,0.08000,0.84000
,,,-0.00009709000,0.08000,0.80000
,,,-0.00009708000,0.08000,0.84000
,,,-0.00009707000,0.08000,0.88000
,,,-0.00009706000,0.08000,0.84000
,,,-0.00009705000,0.08000,0.80000
,,,-0.00009704000,0.08000,0.88000
,,,-0.00009703000,0.08000,0.84000
,,,-0.00009702000,0.16000,0.88000
,,,-0.00009701000,0.08000,0.80000
,,,-0.00009700000,0.08000,0.80000
,,,-0.00009699000,0.08000,0.84000
,,,-0.00009698000,0.08000,0.80000
,,,-0.00009697000,0.16000,0.84000
,,,-0.00009696000,0.08000,0.84000
,,,-0.00009695000,0.08000,0.84000
,,,-0.00009694000,0.08000,0.88000
,,,-0.00009693000,0.08000,0.84000
,,,-0.00009692000,0.08000,0.84000
,,,-0.00009691000,0.08000,0.80000
,,,-0.00009690000,0.08000,0.84000
,,,-0.00009689000,0.08000,0.88000
,,,-0.00009688000,0.08000,0.84000
,,,-0.00009687000,0.08000,0.84000
,,,-0.00009686000,0.08000,0.84000
,,,-0.00009685000,0.08000,0.84000
,,,-0.00009684000,0.08000,0.88000
,,,-0.00009683000,0.08000,0.88000
,,,-0.00009682000,0.08000,0.88000
,,,-0.00009681000,0.08000,0.84000
,,,-0.00009680000,0.08000,0.84000
,,,-0.00009679000,0.08000,0.84000
,,,-0.00009678000,0.08000,0.84000
,,,-0.00009677000,0.08000,0.84000
,,,-0.00009676000,0.08000,0.80000
,,,-0.00009675000,0.08000,0.84000
,,,-0.00009674000,0.08000,0.84000
,,,-0.00009673000,0.08000,0.84000
,,,-0.00009672000,0.08000,0.84000
,,,-0.00009671000,0.00,0.84000
,,,-0.00009670000,0.08000,0.84000
,,,-0.00009669000,0.00,0.84000
,,,-0.00009668000,0.08000,0.80000
,,,-0.00009667000,0.08000,0.84000
,,,-0.00009666000,0.08000,0.80000
,,,-0.00009665000,0.08000,0.80000
,,,-0.00009664000,0.08000,0.88000
,,,-0.00009663000,0.08000,0.84000
