datosdia1/SDS00002.CSV

Record Length,20480,,Source,CH1,CH2
Sample Interval,CH1:0.0000000100000 CH2:0.0000000100000,,Second,Volt,Volt
Vertical Units,CH1:V CH2:V,,-0.00010240000,4.32000,0.01400
Vertical Scale,CH1:2.00 CH2:0.05,,-0.00010239000,4.24000,0.01200
Vertical Offset,CH1:0.00 CH2:0.00,,-0.00010238000,4.32000,0.00800
Horizontal Units,s,,-0.00010237000,4.32000,0.00400
Horizontal Scale,0.0000100000,,-0.00010236000,4.32000,0.00
Model Number,SDS1102CML+,,-0.00010235000,4.32000,0.00
Serial Number,SDS1MHEX5R4100,,-0.00010234000,4.24000,0.00
Software Version,6.01.01.21R2,,-0.00010233000,4.32000,-0.00200
,,,-0.00010232000,4.32000,0.00
,,,-0.00010231000,4.32000,0.00
,,,-0.00010230000,4.32000,0.00
,,,-0.00010229000,4.32000,0.00
,,,-0.00010228000,4.32000,0.00200
,,,-0.00010227000,4.32000,0.00
,,,-0.00010226000,4.32000,-0.00200
,,,-0.00010225000,4.32000,-0.00200
,,,-0.00010224000,4.40000,-0.00400
,,,-0.00010223000,4.32000,-0.00200
,,,-0.00010222000,4.32000,-0.00400
,,,-0.00010221000,4.40000,-0.00400
,,,-0.00010220000,4.32000,-0.00600
,,,-0.00010219000,4.40000,-0.00800
,,,-0.00010218000,4.40000,-0.01000
,,,-0.00010217000,4.32000,-0.01200
,,,-0.00010216000,4.32000,-0.01600
,,,-0.00010215000,4.32000,-0.01600
,,,-0.00010214000,4.40000,-0.01600
,,,-0.00010213000,4.40000,-0.01600
,,,-0.00010212000,4.40000,-0.01200
,,,-0.00010211000,4.40000,-0.01000
,,,-0.00010210000,4.40000,-0.00800
,,,-0.00010209000,4.40000,-0.00800
,,,-0.00010208000,4.32000,-0.01000
,,,-0.00010207000,4.40000,-0.01200
,,,-0.00010206000,4.40000,-0.01600
,,,-0.00010205000,4.40000,-0.02400
,,,-0.00010204000,4.40000,-0.02600
,,,-0.00010203000,4.40000,-0.02800
,,,-0.00010202000,4.40000,-0.02800
,,,-0.00010201000,4.40000,-0.02600
,,,-0.00010200000,4.40000,-0.02400
,,,-0.00010199000,4.48000,-0.02200
,,,-0.00010198000,4.40000,-0.01800
,,,-0.00010197000,4.40000,-0.01600
,,,-0.00010196000,4.40000,-0.01600
,,,-0.00010195000,4.40000,-0.01600
,,,-0.00010194000,4.40000,-0.01600
,,,-0.00010193000,4.40000,-0.01800
,,,-0.00010192000,4.48000,-0.01800
,,,-0.00010191000,4.40000,-0.01800
,,,-0.00010190000,4.48000,-0.01800
,,,-0.00010189000,4.48000,-0.01600
,,,-0.00010188000,4.48000,-0.01400
,,,-0.00010187000,4.48000,-0.01000
,,,-0.00010186000,4.48000,-0.01000
,,,-0.00010185000,4.40000,-0.00800
,,,-0.00010184000,4.48000,-0.00800
,,,-0.00010183000,4.48000,-0.00800
,,,-0.00010182000,4.48000,-0.00800
,,,-0.00010181000,4.48000,-0.00800
,,,-0.00010180000,4.48000,-0.00800
,,,-0.00010179000,4.56000,-0.00400
,,,-0.00010178000,4.48000,-0.00400
,,,-0.00010177000,4.48000,-0.00200
,,,-0.00010176000,4.48000,0.00
,,,-0.00010175000,4.48000,0.00
,,,-0.00010174000,4.48000,0.00
,,,-0.00010173000,4.48000,-0.00200
,,,-0.00010172000,4.48000,-0.00400
,,,-0.00010171000,4.48000,-0.00600
,,,-0.00010170000,4.56000,-0.00600
,,,-0.00010169000,4.48000,-0.00400
,,,-0.00010168000,4.56000,-0.00200
,,,-0.00010167000,4.56000,0.00
,,,-0.00010166000,4.48000,0.00600
,,,-0.00010165000,4.48000,0.01200
,,,-0.00010164000,4.56000,0.01600
,,,-0.00010163000,4.48000,0.01800
,,,-0.00010162000,4.56000,0.02000
,,,-0.00010161000,4.56000,0.01600
,,,-0.00010160000,4.56000,0.01400
,,,-0.00010159000,4.56000,0.01200
,,,-0.00010158000,4.56000,0.00600
,,,-0.00010157000,4.56000,0.00600
,,,-0.00010156000,4.56000,0.00600
,,,-0.00010155000,4.56000,0.00800
,,,-0.00010154000,4.64000,0.01200
,,,-0.00010153000,4.56000,0.01400
,,,-0.00010152000,4.56000,0.01600
,,,-0.00010151000,4.56000,0.01600
,,,-0.00010150000,4.56000,0.01600
,,,-0.00010149000,4.56000,0.01400
,,,-0.00010148000,4.56000,0.01400
,,,-0.00010147000,4.64000,0.01200
,,,-0.00010146000,4.56000,0.00800
,,,-0.00010145000,4.56000,0.00800
,,,-0.00010144000,4.64000,0.00800
,,,-0.00010143000,4.56000,0.01000
,,,-0.00010142000,4.56000,0.00800
,,,-0.00010141000,4.64000,0.00800
,,,-0.00010140000,4.56000,0.00800
,,,-0.00010139000,4.56000,0.00600
,,,-0.00010138000,4.64000,0.00400
,,,-0.00010137000,4.56000,0.00
,,,-0.00010136000,4.56000,0.00
,,,-0.00010135000,4.64000,0.00
,,,-0.00010134000,4.64000,0.00
,,,-0.00010133000,4.64000,0.00200
,,,-0.00010132000,4.64000,0.00400
,,,-0.00010131000,4.64000,0.00600
,,,-0.00010130000,4.64000,0.00600
,,,-0.00010129000,4.64000,0.00600
,,,-0.00010128000,4.64000,0.00400
,,,-0.00010127000,4.64000,0.00
,,,-0.00010126000,4.64000,-0.00400
,,,-0.00010125000,4.64000,-0.01000
,,,-0.00010124000,4.64000,-0.01400
,,,-0.00010123000,4.64000,-0.01600
,,,-0.00010122000,4.64000,-0.01800
,,,-0.00010121000,4.64000,-0.01800
,,,-0.00010120000,4.64000,-0.01600
,,,-0.00010119000,4.64000,-0.01200
,,,-0.00010118000,4.64000,-0.01000
,,,-0.00010117000,4.64000,-0.01000
,,,-0.00010116000,4.64000,-0.01000
,,,-0.00010115000,4.64000,-0.01200
,,,-0.00010114000,4.64000,-0.01600
,,,-0.00010113000,4.64000,-0.02000
,,,-0.00010112000,4.64000,-0.02400
,,,-0.00010111000,4.64000,-0.02600
,,,-0.00010110000,4.64000,-0.02800
,,,-0.00010109000,4.64000,-0.02800
,,,-0.00010108000,4.64000,-0.02800
,,,-0.00010107000,4.64000,-0.02600
,,,-0.00010106000,4.64000,-0.02400
,,,-0.00010105000,4.64000,-0.02600
,,,-0.00010104000,4.64000,-0.02600
,,,-0.00010103000,4.64000,-0.02600
,,,-0.00010102000,4.64000,-0.02600
,,,-0.00010101000,4.64000,-0.02400
,,,-0.00010100000,4.72000,-0.02400
,,,-0.00010099000,4.72000,-0.02200
,,,-0.00010098000,4.80000,-0.02200
,,,-0.00010097000,4.64000,-0.02200
,,,-0.00010096000,4.72000,-0.02000
,,,-0.00010095000,4.72000,-0.02400
,,,-0.00010094000,4.72000,-0.02600
,,,-0.00010093000,4.72000,-0.02600
,,,-0.00010092000,4.72000,-0.02800
,,,-0.00010091000,4.72000,-0.02800
,,,-0.00010090000,4.64000,-0.02800
,,,-0.00010089000,4.80000,-0.02600
,,,-0.00010088000,4.80000,-0.02400
,,,-0.00010087000,4.80000,-0.02000
,,,-0.00010086000,4.80000,-0.01600
,,,-0.00010085000,4.80000,-0.01200
,,,-0.00010084000,4.64000,-0.00800
,,,-0.00010083000,4.80000,-0.00800
,,,-0.00010082000,4.80000,-0.00800
,,,-0.00010081000,4.80000,-0.01000
,,,-0.00010080000,4.72000,-0.01200
,,,-0.00010079000,4.80000,-0.01400
,,,-0.00010078000,4.80000,-0.01600
,,,-0.00010077000,4.80000,-0.01400
,,,-0.00010076000,4.80000,-0.01400
,,,-0.00010075000,4.80000,-0.01000
,,,-0.00010074000,4.80000,-0.00800
,,,-0.00010073000,4.80000,-0.00400
,,,-0.00010072000,4.80000,-0.00200
,,,-0.00010071000,4.80000,0.00200
,,,-0.00010070000,4.80000,0.00200
,,,-0.00010069000,4.80000,0.00400
,,,-0.00010068000,4.80000,0.00600
,,,-0.00010067000,4.80000,0.00400
,,,-0.00010066000,4.80000,0.00800
,,,-0.00010065000,4.80000,0.00600
,,,-0.00010064000,4.80000,0.00800
,,,-0.00010063000,4.80000,0.00800
,,,-0.00010062000,4.80000,0.00600
,,,-0.00010061000,4.80000,0.00600
,,,-0.00010060000,4.80000,0.00600
,,,-0.00010059000,4.80000,0.00400
,,,-0.00010058000,4.80000,0.00400
,,,-0.00010057000,4.80000,0.00400
,,,-0.00010056000,4.80000,0.00600
,,,-0.00010055000,4.80000,0.00800
,,,-0.00010054000,4.80000,0.01200
,,,-0.00010053000,4.80000,0.01200
,,,-0.00010052000,4.80000,0.01600
,,,-0.00010051000,4.80000,0.02000
,,,-0.00010050000,4.80000,0.02000
,,,-0.00010049000,4.80000,0.01800
,,,-0.00010048000,4.80000,0.01600
,,,-0.00010047000,4.80000,0.01200
,,,-0.00010046000,4.80000,0.00800
,,,-0.00010045000,4.80000,0.00600
,,,-0.00010044000,4.80000,0.00400
,,,-0.00010043000,4.80000,0.00200
,,,-0.00010042000,4.80000,0.00400
,,,-0.00010041000,4.80000,0.00600
,,,-0.00010040000,4.80000,0.00400
,,,-0.00010039000,4.80000,0.00600
,,,-0.00010038000,4.80000,0.00600
,,,-0.00010037000,4.80000,0.00600
,,,-0.00010036000,4.80000,0.00600
,,,-0.00010035000,4.88000,0.00200
,,,-0.00010034000,4.80000,0.00
,,,-0.00010033000,4.80000,-0.00200
,,,-0.00010032000,4.80000,-0.00400
,,,-0.00010031000,4.80000,-0.00600
,,,-0.00010030000,4.80000,-0.01000
,,,-0.00010029000,4.80000,-0.01000
,,,-0.00010028000,4.80000,-0.01200
,,,-0.00010027000,4.80000,-0.01200
,,,-0.00010026000,4.80000,-0.01200
,,,-0.00010025000,4.80000,-0.01200
,,,-0.00010024000,4.88000,-0.01000
,,,-0.00010023000,4.80000,-0.00800
,,,-0.00010022000,4.80000,-0.00800
,,,-0.00010021000,4.80000,-0.00600
,,,-0.00010020000,4.80000,-0.00800
,,,-0.00010019000,4.80000,-0.00800
,,,-0.00010018000,4.80000,-0.00800
,,,-0.00010017000,4.80000,-0.01000
,,,-0.00010016000,4.88000,-0.01200
,,,-0.00010015000,4.80000,-0.01600
,,,-0.00010014000,4.80000,-0.01800
,,,-0.00010013000,4.80000,-0.02200
,,,-0.00010012000,4.80000,-0.02600
,,,-0.00010011000,4.80000,-0.02800
,,,-0.00010010000,4.80000,-0.02800
,,,-0.00010009000,4.80000,-0.02800
,,,-0.00010008000,4.80000,-0.02600
,,,-0.00010007000,4.80000,-0.02200
,,,-0.00010006000,4.80000,-0.02000
,,,-0.00010005000,4.80000,-0.02000
,,,-0.00010004000,4.80000,-0.01800
,,,-0.00010003000,4.80000,-0.01800
,,,-0.00010002000,4.80000,-0.02000
,,,-0.00010001000,4.80000,-0.02400
,,,-0.00010000000,4.80000,-0.02600
,,,-0.00009999000,4.88000,-0.02800
,,,-0.00009998000,4.80000,-0.02800
,,,-0.00009997000,4.80000,-0.02800
,,,-0.00009996000,4.80000,-0.02600
,,,-0.00009995000,4.80000,-0.02400
,,,-0.00009994000,4.80000,-0.02000
,,,-0.00009993000,4.80000,-0.01600
,,,-0.00009992000,4.80000,-0.01600
,,,-0.00009991000,4.80000,-0.01200
,,,-0.00009990000,4.80000,-0.01200
,,,-0.00009989000,4.80000,-0.01200
,,,-0.00009988000,4.88000,-0.01000
,,,-0.00009987000,4.80000,-0.00800
,,,-0.00009986000,4.80000,-0.00800
,,,-0.00009985000,4.80000,-0.00800
,,,-0.00009984000,4.80000,-0.01000
,,,-0.00009983000,4.80000,-0.01000
,,,-0.00009982000,4.80000,-0.01200
,,,-0.00009981000,4.88000,-0.01400
,,,-0.00009980000,4.80000,-0.01600
,,,-0.00009979000,4.88000,-0.01600
,,,-0.00009978000,4.80000,-0.01600
,,,-0.00009977000,4.80000,-0.01000
,,,-0.00009976000,4.88000,-0.00800
,,,-0.00009975000,4.88000,-0.00400
,,,-0.00009974000,4.80000,0.00
,,,-0.00009973000,4.80000,0.00
,,,-0.00009972000,4.80000,0.00400
,,,-0.00009971000,4.88000,0.00400
,,,-0.00009970000,4.80000,0.00600
,,,-0.00009969000,4.88000,0.00400
,,,-0.00009968000,4.80000,0.00400
,,,-0.00009967000,4.88000,0.00400
,,,-0.00009966000,4.88000,0.00400
,,,-0.00009965000,4.88000,0.00200
,,,-0.00009964000,4.88000,0.00400
,,,-0.00009963000,4.80000,0.00400
,,,-0.00009962000,4.88000,0.00600
,,,-0.00009961000,4.88000,0.00800
,,,-0.00009960000,4.88000,0.01000
,,,-0.00009959000,4.88000,0.01000
,,,-0.00009958000,4.88000,0.01200
,,,-0.00009957000,4.80000,0.01200
,,,-0.00009956000,4.80000,0.01200
,,,-0.00009955000,4.88000,0.01400
,,,-0.00009954000,4.88000,0.01400
,,,-0.00009953000,4.88000,0.01600
,,,-0.00009952000,4.88000,0.01400
,,,-0.00009951000,4.80000,0.01200
,,,-0.00009950000,4.88000,0.01200
,,,-0.00009949000,4.80000,0.00800
,,,-0.00009948000,4.88000,0.00600
,,,-0.00009947000,4.80000,0.00400
,,,-0.00009946000,4.80000,0.00
,,,-0.00009945000,4.80000,0.00
,,,-0.00009944000,4.88000,0.00
,,,-0.00009943000,4.80000,0.00200
,,,-0.00009942000,4.88000,0.00400
,,,-0.00009941000,4.88000,0.00800
,,,-0.00009940000,4.80000,0.00800
,,,-0.00009939000,4.80000,0.01200
,,,-0.00009938000,4.88000,0.01000
,,,-0.00009937000,4.80000,0.00800
,,,-0.00009936000,4.80000,0.00400
,,,-0.00009935000,4.88000,0.00
,,,-0.00009934000,4.80000,-0.00400
,,,-0.00009933000,4.80000,-0.01000
,,,-0.00009932000,4.80000,-0.01400
,,,-0.00009931000,4.88000,-0.01200
,,,-0.00009930000,4.80000,-0.01200
,,,-0.00009929000,4.88000,-0.01000
,,,-0.00009928000,4.88000,-0.00600
,,,-0.00009927000,4.80000,-0.00400
,,,-0.00009926000,4.80000,-0.00400
,,,-0.00009925000,4.80000,-0.00600
,,,-0.00009924000,4.80000,-0.01000
,,,-0.00009923000,4.80000,-0.01200
,,,-0.00009922000,4.88000,-0.01800
,,,-0.00009921000,4.80000,-0.02200
,,,-0.00009920000,4.80000,-0.02600
,,,-0.00009919000,4.80000,-0.02600
,,,-0.00009918000,4.80000,-0.02800
,,,-0.00009917000,4.88000,-0.02600
,,,-0.00009916000,4.80000,-0.02600
,,,-0.00009915000,4.88000,-0.02400
,,,-0.00009914000,4.80000,-0.02200
,,,-0.00009913000,4.80000,-0.02400
,,,-0.00009912000,4.80000,-0.02400
,,,-0.00009911000,4.80000,-0.02400
,,,-0.00009910000,4.80000,-0.02400
,,,-0.00009909000,4.80000,-0.02400
,,,-0.00009908000,4.80000,-0.02400
,,,-0.00009907000,4.80000,-0.02400
,,,-0.00009906000,4.80000,-0.02000
,,,-0.00009905000,4.80000,-0.02000
,,,-0.00009904000,4.80000,-0.01800
,,,-0.00009903000,4.80000,-0.01800
,,,-0.00009902000,4.80000,-0.02200
,,,-0.00009901000,4.80000,-0.02200
,,,-0.00009900000,4.80000,-0.02400
,,,-0.00009899000,4.88000,-0.02600
,,,-0.00009898000,4.80000,-0.02400
,,,-0.00009897000,4.88000,-0.02200
,,,-0.00009896000,4.80000,-0.02000
,,,-0.00009895000,4.80000,-0.01600
,,,-0.00009894000,4.80000,-0.01200
,,,-0.00009893000,4.80000,-0.01200
,,,-0.00009892000,4.80000,-0.01200
,,,-0.00009891000,4.80000,-0.01400
,,,-0.00009890000,4.80000,-0.01800
,,,-0.00009889000,4.80000,-0.02000
,,,-0.00009888000,4.80000,-0.02400
,,,-0.00009887000,4.80000,-0.02400
,,,-0.00009886000,4.80000,-0.02200
,,,-0.00009885000,4.80000,-0.02000
,,,-0.00009884000,4.80000,-0.01600
,,,-0.00009883000,4.80000,-0.01000
,,,-0.00009882000,4.80000,-0.00600
,,,-0.00009881000,4.80000,-0.00200
,,,-0.00009880000,4.80000,0.00
,,,-0.00009879000,4.80000,0.00
,,,-0.00009878000,4.80000,0.00200
,,,-0.00009877000,4.80000,0.00200
,,,-0.00009876000,4.80000,0.00400
,,,-0.00009875000,4.80000,0.00400
,,,-0.00009874000,4.80000,0.00400
,,,-0.00009873000,4.80000,0.00800
,,,-0.00009872000,4.80000,0.00800
,,,-0.00009871000,4.80000,0.00800
,,,-0.00009870000,4.80000,0.01000
,,,-0.00009869000,4.80000,0.00800
,,,-0.00009868000,4.80000,0.00800
,,,-0.00009867000,4.80000,0.00800
,,,-0.00009866000,4.80000,0.00800
,,,-0.00009865000,4.80000,0.00800
,,,-0.00009864000,4.80000,0.00800
,,,-0.00009863000,4.80000,0.01200
,,,-0.00009862000,4.80000,0.01400
,,,-0.00009861000,4.80000,0.01600
,,,-0.00009860000,4.80000,0.01600
,,,-0.00009859000,4.80000,0.01600
,,,-0.00009858000,4.80000,0.01400
,,,-0.00009857000,4.80000,0.01400
,,,-0.00009856000,4.80000,0.00800
,,,-0.00009855000,4.80000,0.00400
,,,-0.00009854000,4.72000,0.00200
,,,-0.00009853000,4.80000,0.00200
,,,-0.00009852000,4.80000,0.00
,,,-0.00009851000,4.80000,0.00600
,,,-0.00009850000,4.80000,0.00600
,,,-0.00009849000,4.80000,0.01000
,,,-0.00009848000,4.80000,0.01400
,,,-0.00009847000,4.80000,0.01400
,,,-0.00009846000,4.80000,0.01800
,,,-0.00009845000,4.80000,0.01800
,,,-0.00009844000,4.80000,0.01400
,,,-0.00009843000,4.72000,0.01200
,,,-0.00009842000,4.80000,0.00800
,,,-0.00009841000,4.80000,0.00400
,,,-0.00009840000,4.72000,-0.00200
,,,-0.00009839000,4.80000,-0.00200
,,,-0.00009838000,4.80000,-0.00200
,,,-0.00009837000,4.80000,0.00
,,,-0.00009836000,4.72000,0.00
,,,-0.00009835000,4.80000,0.00
,,,-0.00009834000,4.80000,0.00
,,,-0.00009833000,4.64000,-0.00200
,,,-0.00009832000,4.72000,-0.00200
,,,-0.00009831000,4.80000,-0.00400
,,,-0.00009830000,4.80000,-0.01000
,,,-0.00009829000,4.72000,-0.00800
,,,-0.00009828000,4.80000,-0.01000
,,,-0.00009827000,4.64000,-0.01200
,,,-0.00009826000,4.72000,-0.01600
,,,-0.00009825000,4.72000,-0.01600
,,,-0.00009824000,4.72000,-0.01800
,,,-0.00009823000,4.72000,-0.02400
,,,-0.00009822000,4.72000,-0.02400
,,,-0.00009821000,4.72000,-0.02400
,,,-0.00009820000,4.64000,-0.02400
,,,-0.00009819000,4.72000,-0.02400
,,,-0.00009818000,4.72000,-0.01800
,,,-0.00009817000,4.64000,-0.01600
,,,-0.00009816000,4.72000,-0.01400
,,,-0.00009815000,4.64000,-0.00800
,,,-0.00009814000,4.64000,-0.00600
,,,-0.00009813000,4.64000,-0.00800
,,,-0.00009812000,4.64000,-0.00800
,,,-0.00009811000,4.64000,-0.01200
,,,-0.00009810000,4.64000,-0.01800
,,,-0.00009809000,4.64000,-0.02200
,,,-0.00009808000,4.64000,-0.02600
,,,-0.00009807000,4.64000,-0.03000
,,,-0.00009806000,4.64000,-0.03000
,,,-0.00009805000,4.64000,-0.02800
,,,-0.00009804000,4.64000,-0.02800
,,,-0.00009803000,4.64000,-0.02200
,,,-0.00009802000,4.64000,-0.02000
,,,-0.00009801000,4.64000,-0.01800
,,,-0.00009800000,4.64000,-0.02000
,,,-0.00009799000,4.64000,-0.01800
,,,-0.00009798000,4.64000,-0.02000
,,,-0.00009797000,4.64000,-0.02200
,,,-0.00009796000,4.64000,-0.02400
,,,-0.00009795000,4.64000,-0.02200
,,,-0.00009794000,4.64000,-0.02000
,,,-0.00009793000,4.64000,-0.01800
,,,-0.00009792000,4.64000,-0.01600
,,,-0.00009791000,4.64000,-0.01600
,,,-0.00009790000,4.56000,-0.01200
,,,-0.00009789000,4.64000,-0.01000
,,,-0.00009788000,4.64000,-0.00800
,,,-0.00009787000,4.64000,-0.00600
,,,-0.00009786000,4.56000,-0.00600
,,,-0.00009785000,4.64000,-0.00400
,,,-0.00009784000,4.56000,-0.00200
,,,-0.00009783000,4.64000,0.00400
,,,-0.00009782000,4.64000,0.00800
,,,-0.00009781000,4.64000,0.00800
,,,-0.00009780000,4.56000,0.01200
,,,-0.00009779000,4.56000,0.01400
,,,-0.00009778000,4.64000,0.01200
,,,-0.00009777000,4.56000,0.01000
,,,-0.00009776000,4.56000,0.00600
,,,-0.00009775000,4.64000,0.00200
,,,-0.00009774000,4.56000,0.00
,,,-0.00009773000,4.56000,0.00
,,,-0.00009772000,4.56000,-0.00200
,,,-0.00009771000,4.56000,-0.00200
,,,-0.00009770000,4.56000,0.00200
,,,-0.00009769000,4.64000,0.00600
,,,-0.00009768000,4.48000,0.01000
,,,-0.00009767000,4.64000,0.01200
,,,-0.00009766000,4.56000,0.01400
,,,-0.00009765000,4.56000,0.01600
,,,-0.00009764000,4.56000,0.01600
,,,-0.00009763000,4.56000,0.01400
,,,-0.00009762000,4.56000,0.01200
,,,-0.00009761000,4.56000,0.01000
,,,-0.00009760000,4.56000,0.00800
,,,-0.00009759000,4.56000,0.01000
,,,-0.00009758000,4.56000,0.00800
,,,-0.00009757000,4.56000,0.01200
,,,-0.00009756000,4.56000,0.01200
,,,-0.00009755000,4.56000,0.01400
,,,-0.00009754000,4.56000,0.01600
,,,-0.00009753000,4.56000,0.01800
,,,-0.00009752000,4.56000,0.01800
,,,-0.00009751000,4.56000,0.01800
,,,-0.00009750000,4.48000,0.01600
,,,-0.00009749000,4.56000,0.01400
,,,-0.00009748000,4.56000,0.01200
,,,-0.00009747000,4.56000,0.00800
,,,-0.00009746000,4.56000,0.00600
,,,-0.00009745000,4.48000,0.00400
,,,-0.00009744000,4.56000,0.00
,,,-0.00009743000,4.56000,-0.00200
,,,-0.00009742000,4.56000,-0.00600
,,,-0.00009741000,4.48000,-0.00800
,,,-0.00009740000,4.56000,-0.01000
,,,-0.00009739000,4.48000,-0.01200
,,,-0.00009738000,4.56000,-0.01000
,,,-0.00009737000,4.48000,-0.00800
,,,-0.00009736000,4.56000,-0.00800
,,,-0.00009735000,4.48000,-0.00400
,,,-0.00009734000,4.48000,-0.00200
,,,-0.00009733000,4.48000,-0.00400
,,,-0.00009732000,4.48000,-0.00600
,,,-0.00009731000,4.48000,-0.00800
,,,-0.00009730000,4.48000,-0.01200
,,,-0.00009729000,4.48000,-0.01600
,,,-0.00009728000,4.40000,-0.01800
,,,-0.00009727000,4.48000,-0.01800
,,,-0.00009726000,4.48000,-0.01800
,,,-0.00009725000,4.40000,-0.01600
,,,-0.00009724000,4.40000,-0.01400
,,,-0.00009723000,4.40000,-0.01200
,,,-0.00009722000,4.48000,-0.01200
,,,-0.00009721000,4.40000,-0.01200
,,,-0.00009720000,4.48000,-0.01400
,,,-0.00009719000,4.40000,-0.01800
,,,-0.00009718000,4.40000,-0.02000
,,,-0.00009717000,4.40000,-0.02200
,,,-0.00009716000,4.40000,-0.02400
,,,-0.00009715000,4.40000,-0.02600
,,,-0.00009714000,4.40000,-0.02600
,,,-0.00009713000,4.40000,-0.02800
,,,-0.00009712000,4.40000,-0.03000
,,,-0.00009711000,4.40000,-0.03200
,,,-0.00009710000,4.40000,-0.03200
,,,-0.00009709000,4.40000,-0.03200
,,,-0.00009708000,4.32000,-0.03400
,,,-0.00009707000,4.40000,-0.03200
,,,-0.00009706000,4.32000,-0.03200
,,,-0.00009705000,4.40000,-0.02800
,,,-0.00009704000,4.32000,-0.02400
,,,-0.00009703000,4.32000,-0.02000
,,,-0.00009702000,4.40000,-0.01800
,,,-0.00009701000,4.32000,-0.01600
,,,-0.00009700000,4.40000,-0.01400
,,,-0.00009699000,4.40000,-0.01200
,,,-0.00009698000,4.40000,-0.01200
,,,-0.00009697000,4.32000,-0.01200
,,,-0.00009696000,4.40000,-0.01200
,,,-0.00009695000,4.32000,-0.01600
,,,-0.00009694000,4.32000,-0.01600
,,,-0.00009693000,4.32000,-0.01400
,,,-0.00009692000,4.32000,-0.01400
,,,-0.00009691000,4.32000,-0.01000
,,,-0.00009690000,4.32000,-0.00800
,,,-0.00009689000,4.32000,-0.00600
,,,-0.00009688000,4.32000,-0.00600
,,,-0.00009687000,4.32000,-0.00400
,,,-0.00009686000,4.32000,-0.00400
,,,-0.00009685000,4.32000,-0.00400
,,,-0.00009684000,4.32000,-0.00600
,,,-0.00009683000,4.32000,-0.00600
,,,-0.00009682000,4.32000,-0.00400
,,,-0.00009681000,4.24000,-0.00800
,,,-0.00009680000,4.24000,-0.00600
,,,-0.00009679000,4.32000,-0.00400
,,,-0.00009678000,4.32000,-0.00400
,,,-0.00009677000,4.24000,-0.00200
,,,-0.00009676000,4.32000,0.00
,,,-0.00009675000,4.32000,0.00200
,,,-0.00009674000,4.32000,0.00400
,,,-0.00009673000,4.24000,0.00800
,,,-0.00009672000,4.24000,0.01200
,,,-0.00009671000,4.32000,0.01600
,,,-0.00009670000,4.32000,0.02000
